number;the best;the worst;average
1;4543.086327880018;8951.969610032578;6982.330479784789
2;4543.086327880018;8969.624019960163;6348.334911618383
3;4529.144898043365;6880.9869495960775;4993.054842071673
4;4529.144898043365;5779.192727324911;4560.358619976471
5;4529.144898043365;4543.086327880018;4534.582055679661
6;4529.144898043365;6202.258873627201;4545.876037799202
7;4299.543057116029;4529.144898043365;4526.848879634091
8;4299.543057116029;6124.577023422612;4580.872120291529
9;4286.097802222376;6238.4758207208215;4442.31503661903
10;4286.097802222376;5513.209260680483;4347.708877540166
11;4286.097802222376;6238.4758207208215;4427.83525634236
12;4286.097802222376;8774.126092713914;4942.640248511565
13;4286.097802222376;7642.562303160677;4564.468331732927
14;4286.097802222376;4865.011997694303;4291.886944177091
15;4286.097802222376;4350.6105713617035;4286.850368060971
16;4286.097802222376;6603.600564040166;4309.272829840549
17;4286.097802222376;6213.867800389107;4340.7318873109125
18;4286.097802222376;6213.867800389107;4324.653202185706
19;4286.097802222376;5995.201712157372;4320.279880421071
20;4286.097802222376;4286.097802222376;4286.097802222372
21;4286.097802222376;4286.097802222376;4286.097802222372
22;4286.097802222376;8574.01147465541;4903.297378208965
23;4286.097802222376;8064.357759136419;4593.270285602654
24;4286.097802222376;4286.097802222376;4286.097802222372
25;4286.097802222376;5065.412189999897;4293.890946100147
26;4286.097802222376;4286.097802222376;4286.097802222372
27;4286.097802222376;4418.055104341774;4287.417375243565
28;4286.097802222376;4286.097802222376;4286.097802222372
29;4286.097802222376;4286.097802222376;4286.097802222372
30;4286.097802222376;5754.029675889457;4309.87784368261
31;4286.097802222376;6518.592538468972;4321.82762121231
32;4286.097802222376;8958.412044353294;4952.057849968877
33;4286.097802222376;7929.610147666424;4765.699000143134
34;4286.097802222376;5277.002025462937;4296.006844454777
35;4286.097802222376;4286.097802222376;4286.097802222372
36;4286.097802222376;4286.097802222376;4286.097802222372
37;4286.097802222376;6031.608864261567;4312.992370156402
38;4286.097802222376;6880.993006551972;4312.046754265667
39;4286.097802222376;6283.842217890926;4319.791984760488
40;4286.097802222376;4286.097802222376;4286.097802222372
41;4219.027997933275;4286.097802222376;4285.42710417948
42;4219.027997933275;9124.13705275089;4953.584232160766
43;4219.027997933275;8127.938261408041;4598.257667480272
44;4219.027997933275;5756.6159285003305;4242.058768939327
45;4219.027997933275;4219.027997933275;4219.027997933271
46;4219.027997933275;4337.0726013318035;4220.208443967256
47;4219.027997933275;4219.027997933275;4219.027997933271
48;4219.027997933275;4974.377006912978;4226.581488023068
49;4219.027997933275;4219.027997933275;4219.027997933271
50;4219.027997933275;4219.027997933275;4219.027997933271
51;4219.027997933275;4219.027997933275;4219.027997933271
52;4219.027997933275;8446.675891052466;4844.843518499979
53;4204.499867384089;6980.182785640611;4384.039706377286
54;4204.499867384089;4395.478605601218;4219.194409649541
55;4204.499867384089;6042.664040791794;4235.905738482411
56;4204.499867384089;4204.499867384089;4204.499867384089
57;4204.499867384089;6363.87127514324;4243.184620561031
58;4204.499867384089;4204.499867384089;4204.499867384089
59;4204.499867384089;6730.024316071095;4230.008413717009
60;4204.499867384089;4204.499867384089;4204.499867384089
61;4204.499867384089;5936.028502230028;4221.815153732548
62;4204.499867384089;8682.79046750058;4844.5736380359485
63;4204.499867384089;8082.7026869884985;4536.471891149027
64;4204.499867384089;4814.226761232155;4211.332649301069
65;4204.499867384089;4351.998835408541;4205.974857064333
66;4204.499867384089;5175.81219744114;4214.212990684659
67;4204.499867384089;5093.896811844354;4213.393836828692
68;4204.499867384089;5033.086535918244;4214.260723749675
69;4204.499867384089;4204.499867384089;4204.499867384089
70;4204.499867384089;5181.549631238856;4214.270365022637
71;4204.499867384089;4204.499867384089;4204.499867384089
72;4204.499867384089;8677.62511780309;4881.444779826276
73;4204.499867384089;6828.8828795295;4489.630451988341
74;4204.499867384089;4763.704867735997;4214.294905772857
75;4204.499867384089;7011.981485659065;4242.345181205386
76;4038.4379127952357;6028.833700454125;4221.082586168901
77;4038.4379127952357;6025.528661756291;4204.4439227163875
78;4038.4379127952357;5994.031257773153;4110.702811786609
79;4038.4379127952357;5252.801906571206;4050.58155273299
80;4038.4379127952357;5252.801906571206;4060.020692696472
81;4038.4379127952357;5862.073955653755;4056.674273223816
82;4038.4379127952357;8721.724886561573;4766.098292282537
83;4038.4379127952357;7002.289295751609;4314.1973874429605
84;4038.4379127952357;5231.388104670722;4050.5018672629226
85;4038.4379127952357;6560.59170061121;4107.102051963764
86;4038.4379127952357;5876.23151140349;4073.50152106099
87;4038.4379127952357;4038.4379127952357;4038.4379127952307
88;4038.4379127952357;4170.3952149146335;4039.7574858164244
89;4038.4379127952357;4038.4379127952357;4038.4379127952307
90;4038.4379127952357;4038.4379127952357;4038.4379127952307
91;4038.4379127952357;4691.950411819348;4044.9730377854717
92;4038.4379127952357;8743.069169991815;4720.732929678391
93;4038.4379127952357;6304.905571861015;4320.07683126422
94;4038.4379127952357;6750.634518080007;4077.546120371707
95;4038.4379127952357;4038.4379127952357;4038.4379127952307
96;4038.4379127952357;4938.746772941153;4047.44100139669
97;4038.4379127952357;5576.025843362291;4069.189671406572
98;4038.4379127952357;4038.4379127952357;4038.4379127952307
99;4038.4379127952357;6497.875702093855;4063.032290688217
100;4038.4379127952357;5575.857611852372;4053.8121097858016
101;4038.4379127952357;4038.4379127952357;4038.4379127952307
102;4038.4379127952357;8726.95607508991;4684.697329651761
103;4038.4379127952357;7838.29664918299;4273.879581680094
104;4038.4379127952357;6885.092188728589;4066.904455554564
105;4038.4379127952357;4038.4379127952357;4038.4379127952307
106;4038.4379127952357;4038.4379127952357;4038.4379127952307
107;4038.4379127952357;4350.985300052673;4041.563386667805
108;4038.4379127952357;4648.164806643302;4045.3338990696975
109;4038.4379127952357;6108.2351434093935;4068.029854545975
110;4038.4379127952357;5019.841677915548;4065.4317865763787
111;4038.4379127952357;6592.411249472497;4063.977646162003
112;4038.4379127952357;8527.989458507887;4714.012269868757
113;4038.4379127952357;7014.567853797081;4351.1694597650985
114;4038.4379127952357;5859.466707167437;4063.027557054649
115;4038.4379127952357;5202.87357334973;4050.0822694007757
116;4038.4379127952357;5521.405776817947;4062.1615608800603
117;4038.4379127952357;4279.896763450755;4040.8525013017857
118;4038.4379127952357;5202.87357334973;4050.0822694007757
119;4038.4379127952357;4038.4379127952357;4038.4379127952307
120;4038.4379127952357;4038.4379127952357;4038.4379127952307
121;4038.4379127952357;5011.029082519099;4048.1638244924693
122;4038.4379127952357;8687.708045241041;4708.564833736666
123;4038.4379127952357;6617.424985778894;4328.630808742038
124;4038.4379127952357;4350.985300052673;4041.563386667805
125;4038.4379127952357;5011.029082519099;4048.1638244924693
126;4038.4379127952357;4118.309646393791;4039.2366301312163
127;4038.4379127952357;4038.4379127952357;4038.4379127952307
128;4038.4379127952357;4038.4379127952357;4038.4379127952307
129;4038.4379127952357;6748.427745830255;4075.8675539490546
130;4038.4379127952357;4991.540461544053;4047.9689382827187
131;4038.4379127952357;4038.4379127952357;4038.4379127952307
132;4038.4379127952357;8761.837649422443;4747.0090198568305
133;4038.4379127952357;7525.230295361425;4341.981412364229
134;4038.4379127952357;4170.3952149146335;4039.7574858164244
135;4038.4379127952357;6108.2351434093935;4065.233154039853
136;4038.4379127952357;4038.4379127952357;4038.4379127952307
137;4038.4379127952357;6633.333117124831;4064.386864838527
138;4038.4379127952357;5237.062065158066;4065.479130110188
139;4038.4379127952357;4897.638263112759;4050.529972431218
140;4038.4379127952357;5665.074376816539;4054.704277435443
141;4038.4379127952357;4204.499867384089;4040.232984890056
142;4038.4379127952357;8628.645173255953;4762.137526335954
143;4038.4379127952357;6834.241191606388;4222.356151140398
144;4038.4379127952357;4038.4379127952357;4038.4379127952307
145;4038.4379127952357;4038.4379127952357;4038.4379127952307
146;4038.4379127952357;4038.4379127952357;4038.4379127952307
147;4038.4379127952357;4038.4379127952357;4038.4379127952307
148;4038.4379127952357;5288.179289568458;4050.9353265629634
149;4038.4379127952357;6497.875702093855;4085.6780116441264
150;4038.4379127952357;4038.4379127952357;4038.4379127952307
151;4038.4379127952357;5859.760962442621;4056.6511432917046
152;4038.4379127952357;8873.561151914286;4731.58475159513
153;4038.4379127952357;7149.399202701171;4325.551493888428
154;4038.4379127952357;4038.4379127952357;4038.4379127952307
155;4038.4379127952357;5625.44402708564;4064.122011589338
156;4038.4379127952357;6885.092188728589;4092.4441889213363
157;4038.4379127952357;4938.746772941153;4047.44100139669
158;4038.4379127952357;5665.074376816539;4064.143417398925
159;4038.4379127952357;6592.411249472497;4067.0069410098054
160;4038.4379127952357;4038.4379127952357;4038.4379127952307
161;4038.4379127952357;4038.4379127952357;4038.4379127952307
162;4038.4379127952357;8910.158183939568;4711.74670398654
163;4038.4379127952357;8241.529897539545;4412.533064842899
164;4038.4379127952357;5876.23151140349;4056.8158487813134
165;4038.4379127952357;4038.4379127952357;4038.4379127952307
166;4038.4379127952357;4038.4379127952357;4038.4379127952307
167;4038.4379127952357;5876.23151140349;4063.2135718335735
168;4038.4379127952357;4118.309646393791;4039.2366301312163
169;4038.4379127952357;6592.411249472497;4063.977646162003
170;4038.4379127952357;4038.4379127952357;4038.4379127952307
171;4038.4379127952357;4038.4379127952357;4038.4379127952307
172;4038.4379127952357;8814.783939383296;4784.992023247358
173;4038.4379127952357;8529.959722187647;4399.366689709134
174;4038.4379127952357;6885.092188728589;4066.9044555545643
175;4038.4379127952357;4038.4379127952357;4038.4379127952307
176;4038.4379127952357;4038.4379127952357;4038.4379127952307
177;4038.4379127952357;5859.760962442621;4075.4577145769244
178;4038.4379127952357;5521.405776817947;4058.9670795861834
179;4038.4379127952357;4038.4379127952357;4038.4379127952307
180;4038.4379127952357;6497.875702093855;4063.032290688217
181;4038.4379127952357;4038.4379127952357;4038.4379127952307
182;4038.4379127952357;8732.050309941711;4699.759453285217
183;4038.4379127952357;7376.4689893914465;4304.534593504067
184;4038.4379127952357;6592.411249472497;4064.11209871094
185;4038.4379127952357;5859.760962442621;4062.3506314424303
186;4038.4379127952357;4038.4379127952357;4038.4379127952307
187;4038.4379127952357;4038.4379127952357;4038.4379127952307
188;4038.4379127952357;4038.4379127952357;4038.4379127952307
189;4038.4379127952357;4038.4379127952357;4038.4379127952307
190;4038.4379127952357;5862.073955653755;4056.674273223816
191;4038.4379127952357;4038.4379127952357;4038.4379127952307
192;4038.4379127952357;8622.67128719236;4730.357513183762
193;4038.4379127952357;6424.330553278883;4354.944683818233
194;4038.4379127952357;5202.87357334973;4052.8294270960932
195;4038.4379127952357;6664.595712371536;4065.498208126979
196;4038.4379127952357;5011.029082519099;4048.1638244924693
197;4038.4379127952357;4038.4379127952357;4038.4379127952307
198;4038.4379127952357;4897.638263112759;4047.0299162984056
199;4038.4379127952357;5576.025843362291;4053.813792100901
200;4038.4379127952357;4388.443526076433;4044.56895352072
201;4038.4379127952357;5859.760962442621;4056.6511432917046
202;4038.4379127952357;8426.594795453633;4721.906273152672
203;4038.4379127952357;7671.8098410667435;4351.255693717407
204;4038.4379127952357;4038.4379127952357;4038.4379127952307
205;4038.4379127952357;5876.23151140349;4058.1354218025076
206;4038.4379127952357;5521.405776817947;4056.7676475682697
207;4038.4379127952357;6429.957934531629;4070.6389796979365
208;4038.4379127952357;4947.710531600338;4056.257095035394
209;4038.4379127952357;4108.261402948709;4039.1361476967654
210;4038.4379127952357;4982.351909143382;4047.877052758712
211;4038.4379127952357;5665.074376816539;4054.704277435444
212;4038.4379127952357;8817.494715391409;4691.328681257166
213;4038.4379127952357;7160.776668408077;4323.4138606532315
214;4038.4379127952357;6750.634518080007;4065.559878848079
215;4038.4379127952357;4038.4379127952357;4038.4379127952307
216;4038.4379127952357;6748.427745830255;4065.537811125581
217;4038.4379127952357;5876.23151140349;4056.8158487813134
218;4038.4379127952357;4170.3952149146335;4039.7574858164244
219;4038.4379127952357;6108.2351434093935;4059.1358851013724
220;4038.4379127952357;5575.857611852372;4056.55926748112
221;4038.4379127952357;4038.4379127952357;4038.4379127952307
222;4038.4379127952357;8838.960554903126;4689.914977703176
223;4038.4379127952357;7127.216417202676;4272.43693721044
224;4038.4379127952357;4991.540461544053;4057.499963770207
225;4038.4379127952357;4648.164806643302;4044.5351817337114
226;4038.4379127952357;4608.38672786781;4044.1374009459564
227;4038.4379127952357;5011.029082519099;4058.608397710753
228;4038.4379127952357;4038.4379127952357;4038.4379127952307
229;4038.4379127952357;6108.2351434093935;4059.1358851013724
230;4038.4379127952357;4051.8831676888885;4038.5723653441673
231;4038.4379127952357;4038.4379127952357;4038.4379127952307
232;4038.4379127952357;8493.363358706172;4684.923862245345
233;4038.4379127952357;7079.073283671951;4323.987350800103
234;4038.4379127952357;4038.4379127952357;4038.4379127952307
235;4038.4379127952357;4038.4379127952357;4038.4379127952307
236;4038.4379127952357;4975.181044969031;4050.5525018122867
237;4038.4379127952357;5862.073955653755;4056.674273223816
238;4038.4379127952357;6560.59170061121;4070.1945756636314
239;4038.4379127952357;6560.59170061121;4063.6594506733904
240;4038.4379127952357;6429.957934531629;4093.20476004616
241;4038.4379127952357;6633.333117124831;4089.453748609686
242;4038.4379127952357;8643.435318336285;4714.471534699097
243;4038.4379127952357;8260.167184924081;4487.39859494499
244;4038.4379127952357;4038.4379127952357;4038.4379127952307
245;4038.4379127952357;4038.4379127952357;4038.4379127952307
246;4038.4379127952357;4038.4379127952357;4038.4379127952307
247;4038.4379127952357;4038.4379127952357;4038.4379127952307
248;4038.4379127952357;4313.15368232702;4041.1850704905482
249;4038.4379127952357;4038.4379127952357;4038.4379127952307
250;4038.4379127952357;4038.4379127952357;4038.4379127952307
251;4038.4379127952357;4240.446786578794;4040.458001533066
252;4038.4379127952357;8824.02037763356;4786.740648737016
253;4038.4379127952357;7232.063147634318;4450.364883781773
254;4038.4379127952357;4938.746772941153;4047.44100139669
255;4038.4379127952357;4350.985300052673;4041.563386667805
256;4038.4379127952357;4038.4379127952357;4038.4379127952307
257;4038.4379127952357;4038.4379127952357;4038.4379127952307
258;4038.4379127952357;6371.333602677074;4061.766869694049
259;4038.4379127952357;4982.351909143382;4047.877052758712
260;4038.4379127952357;4038.4379127952357;4038.4379127952307
261;4038.4379127952357;5521.405776817947;4053.2675914354577
262;4038.4379127952357;8925.702388804313;4774.930564018542
263;4038.4379127952357;7844.523855905696;4420.482710693192
264;4038.4379127952357;5859.760962442621;4056.6511432917046
265;4038.4379127952357;5625.44402708564;4054.307973938134
266;4038.4379127952357;7826.283309000318;4088.3026082809097
267;4038.4379127952357;4038.4379127952357;4038.4379127952307
268;4038.4379127952357;4279.896763450755;4040.8525013017857
269;4038.4379127952357;4038.4379127952357;4038.4379127952307
270;4038.4379127952357;5665.074376816539;4070.574338578348
271;4038.4379127952357;4927.8348572555005;4047.3318822398332
272;4038.4379127952357;8476.276920159748;4710.8665541481905
273;4038.4379127952357;7720.302292679681;4424.5142426702605
274;4038.4379127952357;4038.4379127952357;4038.4379127952307
275;4038.4379127952357;4038.4379127952357;4038.4379127952307
276;4038.4379127952357;4038.4379127952357;4038.4379127952307
277;4038.4379127952357;4038.4379127952357;4038.4379127952307
278;4038.4379127952357;4051.8831676888885;4038.5723653441673
279;4038.4379127952357;5859.466707167437;4056.6482007389527
280;4038.4379127952357;4038.4379127952357;4038.4379127952307
281;4038.4379127952357;5576.025843362291;4060.193148416598
282;4038.4379127952357;8740.507123636615;4772.830017867333
283;4038.4379127952357;7101.7600201225905;4410.286341852087
284;4038.4379127952357;4146.15210244975;4039.5150546917757
285;4038.4379127952357;5859.466707167437;4065.651289340412
286;4038.4379127952357;4927.8348572555005;4047.3318822398332
287;4038.4379127952357;4350.985300052673;4041.563386667805
288;4038.4379127952357;6592.411249472497;4063.9776461620036
289;4038.4379127952357;4038.4379127952357;4038.4379127952307
290;4038.4379127952357;4350.985300052673;4043.583475405641
291;4038.4379127952357;4038.4379127952357;4038.4379127952307
292;4038.4379127952357;8807.374421047916;4697.322121605965
293;4038.4379127952357;8250.725739276626;4450.67710633096
294;4038.4379127952357;4038.4379127952357;4038.4379127952307
295;4038.4379127952357;5859.466707167437;4056.6482007389527
296;4038.4379127952357;4038.4379127952357;4038.4379127952307
297;4038.4379127952357;6885.092188728589;4082.2128085964027
298;4038.4379127952357;5237.062065158066;4050.4241543188587
299;4038.4379127952357;4648.164806643302;4044.5351817337114
300;4038.4379127952357;4038.4379127952357;4038.4379127952307
301;4038.4379127952357;4038.4379127952357;4038.4379127952307
302;4038.4379127952357;8751.121235071489;4820.149793258385
303;4038.4379127952357;8349.08077521879;4458.080420742833
304;4038.4379127952357;4350.985300052673;4041.563386667805
305;4038.4379127952357;5625.44402708564;4054.307973938135
306;4038.4379127952357;6664.595712371536;4080.0753700966643
307;4038.4379127952357;5137.056325690311;4049.424096924182
308;4038.4379127952357;6748.427745830255;4065.537811125581
309;4038.4379127952357;4038.4379127952357;4038.4379127952307
310;4038.4379127952357;6108.2351434093935;4060.455458122566
311;4038.4379127952357;4038.4379127952357;4038.4379127952307
312;4038.4379127952357;8989.029802457986;4751.584275058355
313;4038.4379127952357;7754.746593994585;4396.577654705497
314;4038.4379127952357;4608.38672786781;4044.1374009459564
315;4038.4379127952357;4927.8348572555005;4047.3318822398332
316;4038.4379127952357;5859.760962442621;4065.545112736307
317;4038.4379127952357;4038.4379127952357;4038.4379127952307
318;4038.4379127952357;4608.38672786781;4044.1374009459564
319;4038.4379127952357;4038.4379127952357;4038.4379127952307
320;4038.4379127952357;5876.23151140349;4065.9085749693645
321;4038.4379127952357;6560.59170061121;4063.6594506733904
322;4038.4379127952357;8925.88977880198;4784.046024114852
323;4038.4379127952357;6993.563472058487;4371.280996991073
324;4038.4379127952357;4691.950411819348;4044.973037785472
325;4038.4379127952357;4204.499867384089;4040.098532341119
326;4038.4379127952357;4038.4379127952357;4038.4379127952307
327;4038.4379127952357;4038.4379127952357;4038.4379127952307
328;4038.4379127952357;4038.4379127952357;4038.4379127952307
329;4038.4379127952357;4038.4379127952357;4038.4379127952307
330;4038.4379127952357;5237.062065158066;4056.52142325734
331;4038.4379127952357;5288.179289568458;4050.935326562963
332;4038.4379127952357;8577.387560633362;4676.20599845277
333;4038.4379127952357;6701.988446974795;4305.943870660639
334;4038.4379127952357;4038.4379127952357;4038.4379127952307
335;4038.4379127952357;5862.073955653755;4059.703568071618
336;4038.4379127952357;5202.87357334973;4051.40184242197
337;4038.4379127952357;4038.4379127952357;4038.4379127952307
338;4038.4379127952357;4038.4379127952357;4038.4379127952307
339;4038.4379127952357;4038.4379127952357;4038.4379127952307
340;4038.4379127952357;4204.499867384089;4040.098532341119
341;4038.4379127952357;4676.373544364894;4044.817269110927
342;4038.4379127952357;9074.062196996827;4718.486936434932
343;4038.4379127952357;6301.175917581592;4352.02586973787
344;4038.4379127952357;5859.466707167437;4056.6482007389527
345;4038.4379127952357;5288.179289568458;4050.935326562963
346;4038.4379127952357;6748.427745830255;4075.351848776784
347;4038.4379127952357;5011.029082519099;4048.1638244924693
348;4038.4379127952357;4975.181044969031;4047.805344116968
349;4038.4379127952357;4038.4379127952357;4038.4379127952307
350;4038.4379127952357;6664.595712371536;4072.9853574763356
351;4038.4379127952357;5521.405776817947;4064.4012021078547
352;4038.4379127952357;8717.281167556923;4651.519520728673
353;4038.4379127952357;6562.847059976274;4313.5392906615025
354;4038.4379127952357;6108.2351434093935;4060.455458122566
355;4038.4379127952357;4341.3673975754255;4041.4672076430325
356;4038.4379127952357;5019.841677915548;4048.2519504464335
357;4038.4379127952357;4313.15368232702;4043.5996589971037
358;4038.4379127952357;6108.2351434093935;4071.0653870201268
359;4038.4379127952357;6633.333117124831;4064.386864838527
360;4038.4379127952357;4038.4379127952357;4038.4379127952307
361;4038.4379127952357;4867.0245813293905;4046.7237794805724
362;4038.4379127952357;8812.832860654999;4783.222279357201
363;4038.4379127952357;7664.0939327039705;4482.810731562015
364;4038.4379127952357;5019.841677915548;4048.2519504464335
365;4038.4379127952357;4038.4379127952357;4038.4379127952307
366;4038.4379127952357;4038.4379127952357;4038.4379127952307
367;4038.4379127952357;6108.2351434093935;4061.155973839208
368;4038.4379127952357;5231.388104670722;4050.3674147139855
369;4038.4379127952357;6432.02277072633;4062.373761374541
370;4038.4379127952357;4038.4379127952357;4038.4379127952307
371;4038.4379127952357;4038.4379127952357;4038.4379127952307
372;4038.4379127952357;8520.41266874892;4752.904274434517
373;4038.4379127952357;7395.712159957329;4300.841236352681
374;4038.4379127952357;6592.411249472497;4079.353525467674
375;4038.4379127952357;4038.4379127952357;4038.4379127952307
376;4038.4379127952357;5011.029082519099;4048.1638244924693
377;4038.4379127952357;5137.056325690311;4049.4240969241814
378;4038.4379127952357;4341.3673975754255;4041.467207643033
379;4038.4379127952357;5965.088593008976;4079.379085022616
380;4038.4379127952357;5575.857611852372;4053.8121097858016
381;4038.4379127952357;4038.4379127952357;4038.4379127952307
382;4038.4379127952357;8682.921710811475;4660.333274305957
383;4038.4379127952357;7183.918040554611;4451.905588773733
384;4038.4379127952357;4947.710531600338;4047.5306389832817
385;4038.4379127952357;4038.4379127952357;4038.4379127952307
386;4038.4379127952357;4038.4379127952357;4038.4379127952307
387;4038.4379127952357;5965.088593008976;4057.704419597368
388;4038.4379127952357;6633.333117124831;4064.386864838527
389;4038.4379127952357;4038.4379127952357;4038.4379127952307
390;4038.4379127952357;4038.4379127952357;4038.4379127952307
391;4038.4379127952357;4038.4379127952357;4038.4379127952307
392;4038.4379127952357;8644.406166768982;4765.445256523326
393;4038.4379127952357;8290.60532689116;4552.487639739884
394;4038.4379127952357;4038.4379127952357;4038.4379127952307
395;4038.4379127952357;4146.15210244975;4039.5150546917757
396;4038.4379127952357;5965.088593008976;4057.704419597368
397;4038.4379127952357;4279.896763450755;4040.8525013017857
398;4038.4379127952357;5202.87357334973;4050.0822694007757
399;4038.4379127952357;4038.4379127952357;4038.4379127952307
400;4038.4379127952357;5252.801906571206;4062.567794256619
401;4038.4379127952357;5747.541822730231;4055.528951894581
402;4038.4379127952357;8408.100670685953;4675.0299655441195
403;4038.4379127952357;7168.082814694769;4330.971841456002
404;4038.4379127952357;6750.634518080007;4065.559878848078
405;4038.4379127952357;4313.15368232702;4041.1850704905482
406;4038.4379127952357;5859.466707167437;4056.7826532878894
407;4038.4379127952357;4038.4379127952357;4038.4379127952307
408;4038.4379127952357;4038.4379127952357;4038.4379127952307
409;4038.4379127952357;4038.4379127952357;4038.4379127952307
410;4038.4379127952357;4038.4379127952357;4038.4379127952307
411;4038.4379127952357;4038.4379127952357;4038.4379127952307
412;4038.4379127952357;8433.553992805026;4678.43345483995
413;4038.4379127952357;6099.251722098057;4264.552909478359
414;4038.4379127952357;5747.541822730231;4072.61999099393
415;4038.4379127952357;4038.4379127952357;4038.4379127952307
416;4038.4379127952357;4108.261402948709;4039.1361476967654
417;4038.4379127952357;4038.4379127952357;4038.4379127952307
418;4038.4379127952357;4279.896763450755;4040.8525013017857
419;4038.4379127952357;4038.4379127952357;4038.4379127952307
420;4038.4379127952357;4038.4379127952357;4038.4379127952307
421;4038.4379127952357;4038.4379127952357;4038.4379127952307
422;4038.4379127952357;8617.808499640127;4736.500331859199
423;4038.4379127952357;7634.554675822544;4350.532751569847
424;4038.4379127952357;4038.4379127952357;4038.4379127952307
425;4038.4379127952357;5521.405776817947;4053.2675914354577
426;4038.4379127952357;4038.4379127952357;4038.4379127952307
427;4038.4379127952357;4038.4379127952357;4038.4379127952307
428;4038.4379127952357;4313.15368232702;4041.1850704905482
429;4038.4379127952357;4313.15368232702;4041.1850704905482
430;4038.4379127952357;4038.4379127952357;4038.4379127952307
431;4038.4379127952357;5521.405776817947;4053.267591435458
432;4038.4379127952357;8800.191789679386;4708.31001462889
433;4038.4379127952357;7299.718773290325;4434.315710124182
434;4038.4379127952357;5521.405776817947;4056.7676475682697
435;4038.4379127952357;4038.4379127952357;4038.4379127952307
436;4038.4379127952357;4038.4379127952357;4038.4379127952307
437;4038.4379127952357;5876.23151140349;4075.0290792777873
438;4038.4379127952357;4038.4379127952357;4038.4379127952307
439;4038.4379127952357;6592.411249472497;4081.7669201628883
440;4038.4379127952357;4676.373544364894;4044.817269110927
441;4038.4379127952357;4038.4379127952357;4038.4379127952307
442;4038.4379127952357;8356.270748305755;4756.599537297639
443;4038.4379127952357;8088.917605952493;4370.2533396120425
444;4038.4379127952357;4691.950411819348;4044.9730377854717
445;4038.4379127952357;4038.4379127952357;4038.4379127952307
446;4038.4379127952357;6108.2351434093935;4065.5152414170693
447;4038.4379127952357;4038.4379127952357;4038.4379127952307
448;4038.4379127952357;4204.499867384089;4041.310126786601
449;4038.4379127952357;4038.4379127952357;4038.4379127952307
450;4038.4379127952357;4038.4379127952357;4038.4379127952307
451;4038.4379127952357;4038.4379127952357;4038.4379127952307
452;4038.4379127952357;8700.226499281936;4678.839871973213
453;4038.4379127952357;6234.531449484355;4226.73960897548
454;4038.4379127952357;4038.4379127952357;4038.4379127952307
455;4038.4379127952357;5876.23151140349;4056.8158487813134
456;4038.4379127952357;6108.2351434093935;4059.1358851013724
457;4038.4379127952357;4897.638263112759;4047.0299162984056
458;4038.4379127952357;5862.073955653755;4069.4024924785567
459;4038.4379127952357;4038.4379127952357;4038.4379127952307
460;4038.4379127952357;5202.87357334973;4050.0822694007757
461;4038.4379127952357;4146.15210244975;4039.5150546917757
462;4038.4379127952357;8437.778536020605;4721.660986708795
463;4038.4379127952357;7328.293728525012;4310.054085958058
464;4038.4379127952357;5859.760962442621;4072.177851907238
465;4038.4379127952357;4038.4379127952357;4038.4379127952307
466;4038.4379127952357;4991.540461544053;4047.9689382827187
467;4038.4379127952357;5288.179289568458;4050.935326562963
468;4038.4379127952357;5576.025843362291;4053.9482446498378
469;4038.4379127952357;6592.411249472497;4064.11209871094
470;4038.4379127952357;4982.351909143382;4051.0025266312864
471;4038.4379127952357;4108.261402948709;4039.1361476967654
472;4038.4379127952357;8812.645401434556;4706.988944897189
473;4038.4379127952357;6541.376240112133;4189.078973984085
474;4038.4379127952357;4038.4379127952357;4038.4379127952307
475;4038.4379127952357;4038.4379127952357;4038.4379127952307
476;4038.4379127952357;4975.181044969031;4047.805344116968
477;4038.4379127952357;5575.857611852372;4079.418962682516
478;4038.4379127952357;5231.388104670722;4059.460140902037
479;4038.4379127952357;6748.427745830255;4067.1984306714694
480;4038.4379127952357;5747.541822730231;4055.528951894581
481;4038.4379127952357;4240.446786578794;4040.458001533066
482;4038.4379127952357;8396.450520392307;4697.708141167899
483;4038.4379127952357;6916.244857650968;4205.667798837496
484;4038.4379127952357;5011.029082519099;4048.1638244924693
485;4038.4379127952357;4038.4379127952357;4038.4379127952307
486;4038.4379127952357;6845.91953107021;4084.749089406566
487;4038.4379127952357;5237.062065158066;4050.424154318859
488;4038.4379127952357;5859.466707167437;4064.934067424294
489;4038.4379127952357;4038.4379127952357;4038.4379127952307
490;4038.4379127952357;4038.4379127952357;4038.4379127952307
491;4038.4379127952357;4341.3673975754255;4041.467207643033
492;4038.4379127952357;8826.152776944633;4750.0271253653245
493;4038.4379127952357;7704.376303333849;4326.217860473751
494;4038.4379127952357;5231.388104670722;4050.3674147139855
495;4038.4379127952357;4038.4379127952357;4038.4379127952307
496;4038.4379127952357;4108.261402948709;4039.1361476967654
497;4038.4379127952357;4038.4379127952357;4038.4379127952307
498;4038.4379127952357;5625.44402708564;4066.9644732981974
499;4038.4379127952357;4938.746772941153;4056.033004899865
500;4038.4379127952357;4867.0245813293905;4046.7237794805724
501;4038.4379127952357;4676.373544364894;4051.1966254266235
502;4038.4379127952357;9086.158289022493;4740.650880702007
503;4038.4379127952357;6257.306602785338;4327.002125919964
504;4038.4379127952357;4038.4379127952357;4038.4379127952307
505;4038.4379127952357;4038.4379127952357;4038.4379127952307
506;4038.4379127952357;5288.179289568458;4060.3744665264444
507;4038.4379127952357;4038.4379127952357;4038.4379127952307
508;4038.4379127952357;4038.4379127952357;4038.4379127952307
509;4038.4379127952357;6748.427745830255;4085.4116611679433
510;4038.4379127952357;5231.388104670722;4050.3674147139855
511;4038.4379127952357;4038.4379127952357;4038.4379127952307
512;4038.4379127952357;8764.980997537928;4710.600377752796
513;4038.4379127952357;7966.855573013965;4568.13922689302
514;4038.4379127952357;4313.15368232702;4041.1850704905482
515;4038.4379127952357;4038.4379127952357;4038.4379127952307
516;4038.4379127952357;4038.4379127952357;4038.4379127952307
517;4038.4379127952357;4038.4379127952357;4038.4379127952307
518;4038.4379127952357;4038.4379127952357;4038.4379127952307
519;4038.4379127952357;6748.427745830255;4065.537811125581
520;4038.4379127952357;5965.088593008976;4069.558148067405
521;4038.4379127952357;4051.8831676888885;4038.5723653441673
522;4038.4379127952357;8853.335786697196;4713.0851302646315
523;4038.4379127952357;7312.7455925477625;4337.159341244566
524;4038.4379127952357;5231.388104670722;4050.3674147139855
525;4038.4379127952357;4038.4379127952357;4038.4379127952307
526;4038.4379127952357;4038.4379127952357;4038.4379127952307
527;4038.4379127952357;4038.4379127952357;4038.4379127952307
528;4038.4379127952357;4038.4379127952357;4038.4379127952307
529;4038.4379127952357;4038.4379127952357;4038.4379127952307
530;4038.4379127952357;4051.8831676888885;4038.5723653441673
531;4038.4379127952357;4038.4379127952357;4038.4379127952307
532;4038.4379127952357;8696.196923192154;4789.083133018371
533;4038.4379127952357;6937.104279442932;4252.397454647693
534;4038.4379127952357;4038.4379127952357;4038.4379127952307
535;4038.4379127952357;6108.2351434093935;4059.1358851013724
536;4038.4379127952357;4038.4379127952357;4038.4379127952307
537;4038.4379127952357;6845.91953107021;4066.5127289779803
538;4038.4379127952357;6845.91953107021;4091.3132992372975
539;4038.4379127952357;5747.541822730231;4055.528951894581
540;4038.4379127952357;4038.4379127952357;4038.4379127952307
541;4038.4379127952357;4038.4379127952357;4038.4379127952307
542;4038.4379127952357;8707.604884865297;4689.761478498434
543;4038.4379127952357;7716.99420734309;4529.378996640948
544;4038.4379127952357;5575.857611852372;4063.5380214830407
545;4038.4379127952357;4038.4379127952357;4038.4379127952307
546;4038.4379127952357;5876.23151140349;4066.346874268802
547;4038.4379127952357;4038.4379127952357;4038.4379127952307
548;4038.4379127952357;4038.4379127952357;4038.4379127952307
549;4038.4379127952357;4341.3673975754255;4041.467207643033
550;4038.4379127952357;4108.261402948709;4039.1361476967654
551;4038.4379127952357;4388.443526076433;4041.9379689280427
552;4038.4379127952357;8337.532700748956;4774.903350671204
553;4038.4379127952357;7585.101645016144;4295.390725147715
554;4038.4379127952357;4038.4379127952357;4038.4379127952307
555;4038.4379127952357;5576.025843362291;4065.743294019656
556;4038.4379127952357;4341.3673975754255;4041.467207643033
557;4038.4379127952357;5521.405776817947;4053.2675914354577
558;4038.4379127952357;4038.4379127952357;4038.4379127952307
559;4038.4379127952357;6748.427745830255;4071.917167441278
560;4038.4379127952357;5665.074376816539;4082.7999729281046
561;4038.4379127952357;4038.4379127952357;4038.4379127952307
562;4038.4379127952357;8684.819190183958;4709.699142249405
563;4038.4379127952357;6963.188380076623;4370.1119180081605
564;4038.4379127952357;5237.062065158066;4050.4241543188587
565;4038.4379127952357;4038.4379127952357;4038.4379127952307
566;4038.4379127952357;4038.4379127952357;4038.4379127952307
567;4038.4379127952357;4608.38672786781;4044.1374009459564
568;4038.4379127952357;4608.38672786781;4044.1374009459564
569;4038.4379127952357;4038.4379127952357;4038.4379127952307
570;4038.4379127952357;5231.388104670722;4052.9983993066626
571;4038.4379127952357;4038.4379127952357;4038.4379127952307
572;4038.4379127952357;8918.493420728371;4770.607096193004
573;4038.4379127952357;6347.570147709669;4242.076791087242
574;4038.4379127952357;6108.2351434093935;4071.3704982423396
575;4038.4379127952357;4038.4379127952357;4038.4379127952307
576;4038.4379127952357;6885.092188728589;4066.904455554564
577;4038.4379127952357;5859.760962442621;4072.875260475655
578;4038.4379127952357;4038.4379127952357;4038.4379127952307
579;4038.4379127952357;4341.3673975754255;4041.4672076430325
580;4038.4379127952357;4038.4379127952357;4038.4379127952307
581;4038.4379127952357;5747.541822730231;4055.528951894581
582;4038.4379127952357;8363.204972884518;4708.387269340978
583;4038.4379127952357;8033.978217431507;4348.871226817641
584;4038.4379127952357;6497.875702093855;4074.778291123291
585;4038.4379127952357;4038.4379127952357;4038.4379127952307
586;4038.4379127952357;5231.388104670722;4050.3674147139855
587;4038.4379127952357;4313.15368232702;4041.1850704905482
588;4038.4379127952357;4388.443526076433;4041.9379689280427
589;4038.4379127952357;4038.4379127952357;4038.4379127952307
590;4038.4379127952357;6497.875702093855;4063.032290688217
591;4038.4379127952357;5521.405776817947;4058.9670795861834
592;4038.4379127952357;8826.663297104895;4784.430706766381
593;4038.4379127952357;7674.67934910159;4318.340921939936
594;4038.4379127952357;6885.092188728589;4066.9044555545643
595;4038.4379127952357;4691.950411819348;4044.973037785472
596;4038.4379127952357;4279.896763450755;4040.8525013017857
597;4038.4379127952357;4038.4379127952357;4038.4379127952307
598;4038.4379127952357;4038.4379127952357;4038.4379127952307
599;4038.4379127952357;5747.541822730231;4055.5289518945806
600;4038.4379127952357;4038.4379127952357;4038.4379127952307
601;4038.4379127952357;4038.4379127952357;4038.4379127952307
602;4038.4379127952357;8702.10934520662;4699.930068123582
603;4038.4379127952357;7358.204690214009;4317.693424949419
604;4038.4379127952357;4038.4379127952357;4038.4379127952307
605;4038.4379127952357;4038.4379127952357;4038.4379127952307
606;4038.4379127952357;4341.3673975754255;4041.4672076430325
607;4038.4379127952357;4350.985300052673;4041.563386667805
608;4038.4379127952357;4240.446786578794;4040.458001533066
609;4038.4379127952357;4038.4379127952357;4038.4379127952307
610;4038.4379127952357;4608.38672786781;4047.6374570787684
611;4038.4379127952357;6592.411249472497;4063.9776461620036
612;4038.4379127952357;8801.664633635197;4731.993479677951
613;4038.4379127952357;7098.4388186271535;4375.324253275105
614;4038.4379127952357;5137.056325690311;4055.803453239878
615;4038.4379127952357;4991.540461544053;4047.9689382827187
616;4038.4379127952357;4313.15368232702;4043.8242165329366
617;4038.4379127952357;4038.4379127952357;4038.4379127952307
618;4038.4379127952357;4038.4379127952357;4038.4379127952307
619;4038.4379127952357;4991.540461544053;4047.9689382827187
620;4038.4379127952357;5859.466707167437;4067.9873619374457
621;4038.4379127952357;4240.446786578794;4040.458001533066
622;4038.4379127952357;8562.81305136573;4689.596289581485
623;4038.4379127952357;7304.936144967538;4330.041769460741
624;4038.4379127952357;5625.44402708564;4054.307973938134
625;4038.4379127952357;5011.029082519099;4048.1638244924693
626;4038.4379127952357;4038.4379127952357;4038.4379127952307
627;4038.4379127952357;4038.4379127952357;4038.4379127952307
628;4038.4379127952357;4350.985300052673;4041.563386667805
629;4038.4379127952357;4038.4379127952357;4038.4379127952307
630;4038.4379127952357;5665.074376816539;4069.6955158185274
631;4038.4379127952357;4388.443526076433;4041.9379689280427
632;4038.4379127952357;8466.475744726755;4698.909700363901
633;4038.4379127952357;8113.264598389026;4423.909727946733
634;4038.4379127952357;4038.4379127952357;4038.4379127952307
635;4038.4379127952357;5859.466707167437;4065.740926927004
636;4038.4379127952357;4038.4379127952357;4038.4379127952307
637;4038.4379127952357;4118.309646393791;4039.2366301312163
638;4038.4379127952357;5231.388104670722;4059.7348460357234
639;4038.4379127952357;6748.427745830255;4091.457583905276
640;4038.4379127952357;4051.8831676888885;4038.5723653441673
641;4038.4379127952357;5231.388104670722;4050.3674147139855
642;4038.4379127952357;8415.183179903552;4730.046363997752
643;4038.4379127952357;7010.33905851956;4330.0791319988875
644;4038.4379127952357;4038.4379127952357;4038.4379127952307
645;4038.4379127952357;5859.760962442621;4056.6511432917046
646;4038.4379127952357;6633.333117124831;4064.386864838527
647;4038.4379127952357;5965.088593008976;4060.1190081039235
648;4038.4379127952357;4038.4379127952357;4038.4379127952307
649;4038.4379127952357;4038.4379127952357;4038.4379127952307
650;4038.4379127952357;4897.638263112759;4047.0299162984056
651;4038.4379127952357;4038.4379127952357;4038.4379127952307
652;4038.4379127952357;8802.793256753032;4794.023113965854
653;4038.4379127952357;7736.865829543291;4479.132234380178
654;4038.4379127952357;4038.4379127952357;4038.4379127952307
655;4038.4379127952357;6108.2351434093935;4059.1358851013724
656;4038.4379127952357;4313.15368232702;4041.1850704905482
657;4038.4379127952357;4867.0245813293905;4046.723779480572
658;4038.4379127952357;4038.4379127952357;4038.4379127952307
659;4038.4379127952357;4301.536372062916;4041.767132289442
660;4038.4379127952357;4038.4379127952357;4038.4379127952307
661;4038.4379127952357;4038.4379127952357;4038.4379127952307
662;4038.4379127952357;8687.761604001307;4680.177184216419
663;4038.4379127952357;7830.779290158684;4466.820913231155
664;4038.4379127952357;4038.4379127952357;4038.4379127952307
665;4038.4379127952357;6845.91953107021;4097.839823309271
666;4038.4379127952357;4927.8348572555005;4047.3318822398332
667;4038.4379127952357;4118.309646393791;4039.2366301312163
668;4038.4379127952357;5859.466707167437;4060.1482568717647
669;4038.4379127952357;5576.025843362291;4053.8137921009015
670;4038.4379127952357;4982.351909143382;4047.877052758712
671;4038.4379127952357;4897.638263112759;4047.0299162984056
672;4038.4379127952357;9101.259734099864;4712.789220970393
673;4038.4379127952357;8056.454330914619;4337.617503910259
674;4038.4379127952357;6429.957934531629;4071.7205443343323
675;4038.4379127952357;5237.062065158066;4067.9101272666367
676;4038.4379127952357;6497.875702093855;4071.6242941913924
677;4038.4379127952357;4608.38672786781;4044.1374009459564
678;4038.4379127952357;6633.333117124831;4064.386864838527
679;4038.4379127952357;4038.4379127952357;4038.4379127952307
680;4038.4379127952357;4038.4379127952357;4038.4379127952307
681;4038.4379127952357;4038.4379127952357;4038.4379127952307
682;4038.4379127952357;8312.499601906076;4753.686935560644
683;4038.4379127952357;6143.780816054203;4143.312362452819
684;4038.4379127952357;4038.4379127952357;4038.4379127952307
685;4038.4379127952357;6845.91953107021;4078.65636891574
686;4038.4379127952357;6750.634518080007;4087.0771458591944
687;4038.4379127952357;4038.4379127952357;4038.4379127952307
688;4038.4379127952357;4038.4379127952357;4038.4379127952307
689;4038.4379127952357;5288.179289568458;4060.7493642141662
690;4038.4379127952357;4038.4379127952357;4038.4379127952307
691;4038.4379127952357;4388.443526076433;4041.9379689280427
692;4038.4379127952357;8497.317700251022;4744.5126386685915
693;4038.4379127952357;7427.12736781719;4509.682922512854
694;4038.4379127952357;5521.405776817947;4055.287680173293
695;4038.4379127952357;4118.309646393791;4039.2366301312163
696;4038.4379127952357;5521.405776817947;4062.3603176235088
697;4038.4379127952357;4608.38672786781;4047.1666957937587
698;4038.4379127952357;4991.540461544053;4047.9689382827187
699;4038.4379127952357;4038.4379127952357;4038.4379127952307
700;4038.4379127952357;5625.44402708564;4067.604105041853
701;4038.4379127952357;6560.59170061121;4098.560835019705
702;4038.4379127952357;9150.484616401065;4687.632446016758
703;4038.4379127952357;6235.056389208075;4273.339929850972
704;4038.4379127952357;6108.2351434093935;4059.1358851013724
705;4038.4379127952357;4975.181044969031;4047.805344116969
706;4038.4379127952357;4204.499867384089;4040.098532341119
707;4038.4379127952357;5231.388104670722;4050.3674147139855
708;4038.4379127952357;4038.4379127952357;4038.4379127952307
709;4038.4379127952357;4038.4379127952357;4038.4379127952307
710;4038.4379127952357;5011.029082519099;4049.8244440383583
711;4038.4379127952357;4038.4379127952357;4038.4379127952307
712;4038.4379127952357;8650.77907870259;4712.432954815378
713;4038.4379127952357;7459.696242209852;4412.750331019795
714;4038.4379127952357;4038.4379127952357;4038.4379127952307
715;4038.4379127952357;5859.466707167437;4066.820677729877
716;4038.4379127952357;4038.4379127952357;4038.4379127952307
717;4038.4379127952357;4279.896763450755;4043.267089808341
718;4038.4379127952357;4038.4379127952357;4038.4379127952307
719;4038.4379127952357;4691.950411819348;4047.7201954807892
720;4038.4379127952357;4038.4379127952357;4038.4379127952307
721;4038.4379127952357;4038.4379127952357;4038.4379127952307
722;4038.4379127952357;8815.635071813538;4681.475163500314
723;4038.4379127952357;6845.91953107021;4328.483226958647
724;4038.4379127952357;6750.634518080007;4065.559878848079
725;4038.4379127952357;6845.91953107021;4066.5127289779803
726;4038.4379127952357;6845.91953107021;4066.5127289779803
727;4038.4379127952357;5665.074376816539;4064.1434173989255
728;4038.4379127952357;4350.985300052673;4041.563386667805
729;4038.4379127952357;4038.4379127952357;4038.4379127952307
730;4038.4379127952357;6885.092188728589;4066.904455554564
731;4038.4379127952357;5876.23151140349;4062.913117719794
732;4038.4379127952357;8674.45222779232;4770.330878695358
733;4038.4379127952357;7032.196435757194;4254.199694937755
734;4038.4379127952357;4118.309646393791;4039.2366301312163
735;4038.4379127952357;4038.4379127952357;4038.4379127952307
736;4038.4379127952357;6429.957934531629;4062.3531130125943
737;4038.4379127952357;5862.073955653755;4072.0501525294862
738;4038.4379127952357;5862.073955653755;4087.422667204959
739;4038.4379127952357;4301.536372062916;4041.0688973879073
740;4038.4379127952357;4240.446786578794;4040.458001533066
741;4038.4379127952357;6748.427745830255;4067.557899863417
742;4038.4379127952357;8880.984071840883;4733.592487105286
743;4038.4379127952357;8522.826127521723;4446.9187760133445
744;4038.4379127952357;4038.4379127952357;4038.4379127952307
745;4038.4379127952357;4038.4379127952357;4038.4379127952307
746;4038.4379127952357;4676.373544364894;4044.817269110927
747;4038.4379127952357;5665.074376816539;4069.533956075671
748;4038.4379127952357;5665.074376816539;4066.348634040989
749;4038.4379127952357;6750.634518080007;4065.559878848078
750;4038.4379127952357;4038.4379127952357;4038.4379127952307
751;4038.4379127952357;5862.073955653755;4084.2549350420277
752;4038.4379127952357;8281.953802745124;4658.49111552824
753;4038.4379127952357;6633.333117124831;4347.0080986629855
754;4038.4379127952357;6664.595712371536;4085.3974630971356
755;4038.4379127952357;4927.8348572555005;4047.3318822398332
756;4038.4379127952357;4038.4379127952357;4038.4379127952307
757;4038.4379127952357;6664.595712371536;4085.2500947579874
758;4038.4379127952357;5237.062065158066;4061.41033844781
759;4038.4379127952357;5019.841677915548;4048.2519504464335
760;4038.4379127952357;4038.4379127952357;4038.4379127952307
761;4038.4379127952357;6429.957934531629;4062.3531130125943
762;4038.4379127952357;8576.774917796853;4715.891545096711
763;4038.4379127952357;7680.917198618785;4388.564910275607
764;4038.4379127952357;4038.4379127952357;4038.4379127952307
765;4038.4379127952357;5876.23151140349;4056.8158487813134
766;4038.4379127952357;5521.405776817947;4062.706731398939
767;4038.4379127952357;5575.857611852372;4053.8121097858016
768;4038.4379127952357;6560.59170061121;4074.4127964073305
769;4038.4379127952357;4038.4379127952357;4038.4379127952307
770;4038.4379127952357;4108.261402948709;4039.1361476967654
771;4038.4379127952357;4038.4379127952357;4038.4379127952307
772;4038.4379127952357;8395.243595905858;4729.981707015063
773;4038.4379127952357;7208.602878187382;4477.8378329322095
774;4038.4379127952357;5625.44402708564;4054.307973938135
775;4038.4379127952357;4118.309646393791;4039.2366301312163
776;4038.4379127952357;5576.025843362291;4053.813792100901
777;4038.4379127952357;5576.025843362291;4053.813792100901
778;4038.4379127952357;5137.056325690311;4049.424096924182
779;4038.4379127952357;6560.59170061121;4064.9790236945846
780;4038.4379127952357;5576.025843362291;4053.8137921009015
781;4038.4379127952357;4038.4379127952357;4038.4379127952307
782;4038.4379127952357;8786.851844419663;4730.660386478743
783;4038.4379127952357;8422.331421372013;4504.535552572619
784;4038.4379127952357;6845.91953107021;4091.256039605389
785;4038.4379127952357;4608.38672786781;4044.1374009459564
786;4038.4379127952357;4038.4379127952357;4038.4379127952307
787;4038.4379127952357;4991.540461544053;4048.103390831656
788;4038.4379127952357;5859.760962442621;4058.67123202954
789;4038.4379127952357;5252.801906571206;4050.58155273299
790;4038.4379127952357;5862.073955653755;4062.3737613745416
791;4038.4379127952357;4051.8831676888885;4038.5723653441673
792;4038.4379127952357;8710.287809591566;4772.7305220383605
793;4038.4379127952357;7871.973265228958;4429.783792461385
794;4038.4379127952357;5859.466707167437;4056.6482007389527
795;4038.4379127952357;6560.59170061121;4063.6594506733904
796;4038.4379127952357;4676.373544364894;4044.817269110927
797;4038.4379127952357;6748.427745830255;4075.26372282282
798;4038.4379127952357;5288.179289568458;4050.935326562963
799;4038.4379127952357;4038.4379127952357;4038.4379127952307
800;4038.4379127952357;4038.4379127952357;4038.4379127952307
801;4038.4379127952357;5965.088593008976;4057.704419597368
802;4038.4379127952357;8978.04924121284;4743.636791763592
803;4038.4379127952357;8070.360159752345;4359.887988741018
804;4038.4379127952357;5521.405776817947;4053.2675914354577
805;4038.4379127952357;6592.411249472497;4093.6787070696046
806;4038.4379127952357;5625.44402708564;4062.5938406234764
807;4038.4379127952357;4313.15368232702;4044.00387656437
808;4038.4379127952357;4388.443526076433;4041.9379689280427
809;4038.4379127952357;4038.4379127952357;4038.4379127952307
810;4038.4379127952357;5137.056325690311;4060.544733602069
811;4038.4379127952357;5859.466707167437;4094.1929273071046
812;4038.4379127952357;8430.054224716943;4755.6984561404315
813;4038.4379127952357;8241.615404665254;4338.3797800426
814;4038.4379127952357;6845.91953107021;4067.210963879515
815;4038.4379127952357;4146.15210244975;4039.515054691776
816;4038.4379127952357;5202.87357334973;4050.0822694007757
817;4038.4379127952357;5625.44402708564;4054.307973938135
818;4038.4379127952357;5747.541822730231;4077.903309881074
819;4038.4379127952357;4301.536372062916;4041.0688973879073
820;4038.4379127952357;4038.4379127952357;4038.4379127952307
821;4038.4379127952357;5625.44402708564;4060.843098928376
822;4038.4379127952357;8916.640207696013;4740.131874242755
823;4038.4379127952357;7713.548028582335;4287.599224242703
824;4038.4379127952357;5862.073955653755;4072.9406378640288
825;4038.4379127952357;5965.088593008976;4070.2018333651004
826;4038.4379127952357;6664.595712371536;4099.542412278893
827;4038.4379127952357;4038.4379127952357;4038.4379127952307
828;4038.4379127952357;4038.4379127952357;4038.4379127952307
829;4038.4379127952357;6497.875702093855;4076.8365501718654
830;4038.4379127952357;4038.4379127952357;4038.4379127952307
831;4038.4379127952357;4038.4379127952357;4038.4379127952307
832;4038.4379127952357;8863.138968571811;4712.211855709657
833;4038.4379127952357;6953.038472933163;4337.142951354783
834;4038.4379127952357;4038.4379127952357;4038.4379127952307
835;4038.4379127952357;4038.4379127952357;4038.4379127952307
836;4038.4379127952357;4038.4379127952357;4038.4379127952307
837;4038.4379127952357;5665.074376816539;4054.704277435443
838;4038.4379127952357;5575.857611852372;4078.0197041912534
839;4038.4379127952357;4038.4379127952357;4038.4379127952307
840;4038.4379127952357;4038.4379127952357;4038.4379127952307
841;4038.4379127952357;4691.950411819348;4044.973037785472
842;4038.4379127952357;8367.193927216164;4684.000736773509
843;4038.4379127952357;6769.194660532165;4364.512947405606
844;4038.4379127952357;5575.857611852372;4053.8121097858016
845;4038.4379127952357;5862.073955653755;4066.1134131872973
846;4038.4379127952357;6633.333117124831;4074.1127765357655
847;4038.4379127952357;5252.801906571206;4060.4931292573597
848;4038.4379127952357;6560.59170061121;4082.037386659473
849;4038.4379127952357;4146.15210244975;4039.5150546917757
850;4038.4379127952357;4982.351909143382;4050.5080373513892
851;4038.4379127952357;5859.760962442621;4059.680438139507
852;4038.4379127952357;8501.23135795514;4722.7191404193845
853;4038.4379127952357;6990.682703775169;4474.20236964401
854;4038.4379127952357;4038.4379127952357;4038.4379127952307
855;4038.4379127952357;4867.0245813293905;4046.7237794805724
856;4038.4379127952357;4038.4379127952357;4038.4379127952307
857;4038.4379127952357;6108.2351434093935;4059.1358851013724
858;4038.4379127952357;4038.4379127952357;4038.4379127952307
859;4038.4379127952357;5521.405776817947;4053.2675914354577
860;4038.4379127952357;5288.179289568458;4050.9353265629634
861;4038.4379127952357;4038.4379127952357;4038.4379127952307
862;4038.4379127952357;9193.451851293745;4752.218589820346
863;4038.4379127952357;7816.4657897013785;4635.680297032956
864;4038.4379127952357;4897.638263112759;4047.0299162984056
865;4038.4379127952357;4038.4379127952357;4038.4379127952307
866;4038.4379127952357;6633.333117124831;4064.386864838527
867;4038.4379127952357;5202.87357334973;4066.1875374137117
868;4038.4379127952357;4038.4379127952357;4038.4379127952307
869;4038.4379127952357;5521.405776817947;4053.9658263369924
870;4038.4379127952357;6748.427745830255;4074.905242447319
871;4038.4379127952357;6885.092188728589;4093.521330817882
872;4038.4379127952357;8399.367246141115;4712.55477910665
873;4038.4379127952357;7532.076725125834;4265.045646158709
874;4038.4379127952357;6429.957934531629;4068.8882380028354
875;4038.4379127952357;4982.351909143382;4047.877052758712
876;4038.4379127952357;4038.4379127952357;4038.4379127952307
877;4038.4379127952357;4038.4379127952357;4038.4379127952307
878;4038.4379127952357;4038.4379127952357;4038.4379127952307
879;4038.4379127952357;4038.4379127952357;4038.4379127952307
880;4038.4379127952357;4301.536372062916;4041.0688973879073
881;4038.4379127952357;6748.427745830255;4085.7741712343013
882;4038.4379127952357;8439.703097917703;4664.648091510287
883;4038.4379127952357;7143.832509390913;4275.607700848885
884;4038.4379127952357;4204.499867384089;4040.098532341119
885;4038.4379127952357;5521.405776817947;4053.2675914354577
886;4038.4379127952357;4038.4379127952357;4038.4379127952307
887;4038.4379127952357;6429.957934531629;4062.3531130125943
888;4038.4379127952357;6885.092188728589;4066.9044555545643
889;4038.4379127952357;4038.4379127952357;4038.4379127952307
890;4038.4379127952357;4038.4379127952357;4038.4379127952307
891;4038.4379127952357;6748.427745830255;4089.4530113429446
892;4038.4379127952357;8803.176248864427;4785.723583960478
893;4038.4379127952357;6591.123053788641;4189.11320224485
894;4038.4379127952357;4947.710531600338;4047.5306389832817
895;4038.4379127952357;4038.4379127952357;4038.4379127952307
896;4038.4379127952357;4038.4379127952357;4038.4379127952307
897;4038.4379127952357;4038.4379127952357;4038.4379127952307
898;4038.4379127952357;4897.638263112759;4047.0299162984065
899;4038.4379127952357;4038.4379127952357;4038.4379127952307
900;4038.4379127952357;4038.4379127952357;4038.4379127952307
901;4038.4379127952357;5859.466707167437;4063.027557054649
902;4038.4379127952357;8541.497825806484;4767.349426515044
903;4038.4379127952357;8059.659584931565;4388.72532904877
904;4038.4379127952357;6664.595712371536;4064.6994907909934
905;4038.4379127952357;4897.638263112759;4050.0592111462074
906;4038.4379127952357;4991.540461544053;4047.9689382827187
907;4038.4379127952357;5747.541822730231;4055.5289518945806
908;4038.4379127952357;5747.541822730231;4058.276109589898
909;4038.4379127952357;6633.333117124831;4083.653371640664
910;4038.4379127952357;6108.2351434093935;4059.1358851013724
911;4038.4379127952357;4947.710531600338;4047.5306389832817
912;4038.4379127952357;8190.2630127422235;4735.523744452114
913;4038.4379127952357;7808.913846011289;4273.805063907339
914;4038.4379127952357;5876.23151140349;4056.8158487813134
915;4038.4379127952357;4038.4379127952357;4038.4379127952307
916;4038.4379127952357;6633.333117124831;4064.3868648385264
917;4038.4379127952357;4038.4379127952357;4038.4379127952307
918;4038.4379127952357;4038.4379127952357;4038.4379127952307
919;4038.4379127952357;4038.4379127952357;4038.4379127952307
920;4038.4379127952357;5965.088593008976;4069.348776202913
921;4038.4379127952357;5202.87357334973;4056.1795383392564
922;4038.4379127952357;8682.362899891288;4703.697780329344
923;4038.4379127952357;7661.307997109379;4329.006653939166
924;4038.4379127952357;5288.179289568458;4059.9384151644217
925;4038.4379127952357;4038.4379127952357;4038.4379127952307
926;4038.4379127952357;6748.427745830255;4065.537811125581
927;4038.4379127952357;5859.760962442621;4081.466162560857
928;4038.4379127952357;4038.4379127952357;4038.4379127952307
929;4038.4379127952357;4038.4379127952357;4038.4379127952307
930;4038.4379127952357;4038.4379127952357;4038.4379127952307
931;4038.4379127952357;4038.4379127952357;4038.4379127952307
932;4038.4379127952357;8867.045215897186;4654.688654340711
933;4038.4379127952357;7579.676697830906;4321.637617709723
934;4038.4379127952357;4038.4379127952357;4038.4379127952307
935;4038.4379127952357;4038.4379127952357;4038.4379127952307
936;4038.4379127952357;4108.261402948709;4039.1361476967654
937;4038.4379127952357;4038.4379127952357;4038.4379127952307
938;4038.4379127952357;4038.4379127952357;4038.4379127952307
939;4038.4379127952357;4038.4379127952357;4038.4379127952307
940;4038.4379127952357;4038.4379127952357;4038.4379127952307
941;4038.4379127952357;4038.4379127952357;4038.4379127952307
942;4038.4379127952357;8540.95470243223;4791.640372128474
943;4038.4379127952357;6439.5271467985385;4250.559659108381
944;4038.4379127952357;4927.8348572555005;4048.4090241363783
945;4038.4379127952357;4947.710531600338;4047.5306389832817
946;4038.4379127952357;5252.801906571206;4065.6432310300534
947;4038.4379127952357;4038.4379127952357;4038.4379127952307
948;4038.4379127952357;4897.638263112759;4047.0299162984056
949;4038.4379127952357;5288.179289568458;4057.470451553204
950;4038.4379127952357;4038.4379127952357;4038.4379127952307
951;4038.4379127952357;5747.541822730231;4055.528951894581
952;4038.4379127952357;8428.866795279364;4735.153560982819
953;4038.4379127952357;7067.719485814872;4468.369376610272
954;4038.4379127952357;5859.760962442621;4056.6511432917046
955;4038.4379127952357;5252.801906571206;4050.58155273299
956;4038.4379127952357;6748.427745830255;4071.9171674412773
957;4038.4379127952357;4038.4379127952357;4038.4379127952307
958;4038.4379127952357;6560.59170061121;4103.628025556948
959;4038.4379127952357;4038.4379127952357;4038.4379127952307
960;4038.4379127952357;4038.4379127952357;4038.4379127952307
961;4038.4379127952357;4038.4379127952357;4038.4379127952307
962;4038.4379127952357;9016.35793506305;4726.865349091686
963;4038.4379127952357;7761.145528020096;4368.283293881001
964;4038.4379127952357;4038.4379127952357;4038.4379127952307
965;4038.4379127952357;4388.443526076433;4041.9379689280427
966;4038.4379127952357;4038.4379127952357;4038.4379127952307
967;4038.4379127952357;4038.4379127952357;4038.4379127952307
968;4038.4379127952357;6845.91953107021;4086.4097089524544
969;4038.4379127952357;5521.405776817947;4075.798991877889
970;4038.4379127952357;4038.4379127952357;4038.4379127952307
971;4038.4379127952357;6664.595712371536;4071.07884710669
972;4038.4379127952357;8509.55838748484;4708.28019022932
973;4038.4379127952357;6732.7179719212;4465.434732851893
974;4038.4379127952357;4170.3952149146335;4039.7574858164244
975;4038.4379127952357;4038.4379127952357;4038.4379127952307
976;4038.4379127952357;4975.181044969031;4056.89807030502
977;4038.4379127952357;5625.44402708564;4054.307973938135
978;4038.4379127952357;4982.351909143382;4047.877052758712
979;4038.4379127952357;4038.4379127952357;4038.4379127952307
980;4038.4379127952357;4608.38672786781;4044.1374009459564
981;4038.4379127952357;4038.4379127952357;4038.4379127952307
982;4038.4379127952357;8929.882486457915;4730.1775680989695
983;4038.4379127952357;8230.29411468088;4323.787257126148
984;4038.4379127952357;4038.4379127952357;4038.4379127952307
985;4038.4379127952357;4038.4379127952357;4038.4379127952307
986;4038.4379127952357;4038.4379127952357;4038.4379127952307
987;4038.4379127952357;4691.950411819348;4044.973037785472
988;4038.4379127952357;5252.801906571206;4050.58155273299
989;4038.4379127952357;4897.638263112759;4050.757446047742
990;4038.4379127952357;4350.985300052673;4041.697839216742
991;4038.4379127952357;6885.092188728589;4067.70317289055
992;4038.4379127952357;8824.65427257051;4776.3203712043405
993;4038.4379127952357;7543.404364357925;4316.505242324321
994;4038.4379127952357;6750.634518080007;4065.559878848078
995;4038.4379127952357;4038.4379127952357;4038.4379127952307
996;4038.4379127952357;4608.38672786781;4044.1374009459564
997;4038.4379127952357;4038.4379127952357;4038.4379127952307
998;4038.4379127952357;4038.4379127952357;4038.4379127952307
999;4038.4379127952357;4038.4379127952357;4038.4379127952307
1000;4038.4379127952357;5575.857611852372;4053.8121097858025
