number;the best;the worst;average
1;148827.07235370396;192683.6582502519;170291.7299064468
2;147697.2939020109;184630.48384791412;158898.09285962654
3;140378.98451316028;175939.48787568195;152568.70369769773
4;138585.13890284288;173136.08136785266;150326.07679542984
5;136946.20689997784;162653.20198487423;147239.0709531674
6;135832.5719583801;164560.3519300618;144376.6989763728
7;133472.26924839432;152840.93596227464;140529.88826812617
8;127067.41897922057;154352.53443885385;138455.59864234502
9;126860.6685271223;149926.61246228285;135532.53899839282
10;121914.28776467967;143614.12584008437;132729.31214458786
11;121914.28776467967;142977.22027014958;130197.77191109351
12;120026.915779775;144695.512836408;127671.8948392659
13;118201.74951817875;137350.5273526735;125174.91847861605
14;115690.67586653234;132992.8821703772;123198.28184750564
15;114107.68751783366;138249.3824169313;121627.71120839502
16;110582.9189493202;131354.11476249484;119954.85882719175
17;109258.83026415616;132827.80523752802;118821.13680367307
18;109258.83026415616;137348.69726842444;117611.77540914869
19;106806.72249046575;132297.91627429248;114484.07698251671
20;105604.83625492637;130318.21547674309;111805.74405327748
21;103536.31888771603;123667.75479139677;111473.3671464801
22;101881.84490093713;122963.23721763707;110098.0548248337
23;101881.84490093713;118218.10687577784;107829.1181644299
24;100610.06821004169;120698.18833851653;107257.47063162143
25;100429.1334076523;123795.38512661732;106106.00097906035
26;99193.65912923975;122961.5971714609;105751.62138918183
27;98127.28104953525;117545.28270003283;104440.62230858172
28;98094.72362422514;128268.0897380681;104162.01696810493
29;97134.41619630787;118331.1106854707;102803.92387082886
30;97009.65628720802;112848.08840101356;100971.45566252527
31;95444.3545370588;117446.84781281672;102222.28096389897
32;96733.46959512972;119366.81202220714;101853.02667760658
33;94921.23835484951;117137.409454838;100606.0932373319
34;96280.063041499;115800.72012131361;102018.69382444076
35;96280.063041499;113723.96559891482;100819.24125612766
36;96165.13261623522;115682.58468726545;101286.1864152997
37;95256.7434088568;117291.98531953164;99895.36766625241
38;93673.27748400939;111398.08446877704;99961.5102107034
39;93673.27748400939;116423.4933503322;99704.24121240916
40;94319.62347355823;117158.77202865224;99878.87404316611
41;94319.62347355823;111440.49640924204;99270.5060375662
42;92784.53424319586;110214.3758030447;97754.36644985176
43;92294.20933387337;111280.97761499019;96916.26619538138
44;91872.47723839994;114717.67911133885;96636.49551239266
45;91002.27223147098;113403.76864405358;96204.38501639086
46;90979.31300865747;109323.62012931837;95673.96446860627
47;89711.9022773607;118390.23334007146;95567.36375126762
48;90024.75284461172;110956.59323876607;95998.97346802666
49;90041.75615660353;113561.77369665299;95187.99754484379
50;89000.88124240177;113133.29758757155;94868.4790703003
51;88761.63888588003;110465.71777344361;93796.82911018739
52;88761.63888588003;112455.1652862608;93856.57673791435
53;87618.67826009214;109623.32809269399;92121.09236881451
54;86357.78880840234;106203.01947151929;92712.24413220942
55;84677.70768439127;110299.83488883215;92052.16185110463
56;84677.70768439127;106044.50853943659;92986.69206393117
57;84663.24148144908;113768.23082032669;92359.98801964492
58;84663.24148144908;104345.88665994778;90535.91236181227
59;84077.12771388594;102461.86209924528;88600.0304377417
60;83752.46152360553;104401.79137869923;88515.0016281881
61;83752.46152360553;105683.10696024701;88563.35022735131
62;83343.60384491688;105599.01689265681;88273.86241732964
63;82747.78812031473;104289.27736820963;87869.32479999616
64;82801.86319064129;102994.71913410602;87645.21667774826
65;83027.88164794863;106229.8937927293;88281.82035954829
66;82941.9766481775;105204.5317754462;88582.27559769132
67;82698.9927020809;110272.93114034948;87639.83944765966
68;82642.00144909654;104735.72304834223;87097.80791588212
69;82284.04171237093;103527.40015753018;87432.47326389901
70;82171.32404015028;109930.4454094252;87620.54090983946
71;81438.86708118634;98663.66255837175;86445.51345350409
72;81360.86017220457;100196.13701369343;86406.4411308055
73;80922.072759021;97752.13339776029;85265.22363959414
74;80922.072759021;102445.70505897948;85674.85114370583
75;79640.10348757025;103348.25924800965;84774.04383844747
76;79640.10348757025;100489.91343702165;85246.7362918225
77;79640.10348757025;106565.8242891787;85942.16719447327
78;79640.10348757025;99883.56266043168;84265.80610940464
79;79613.85767916654;100014.0472333726;84432.84473686972
80;79208.6636867089;107278.15187152267;84133.01437619954
81;78383.49855703759;101276.26825125208;82915.18963416445
82;78383.49855703759;97669.82064066512;83070.76824726099
83;78336.53770027707;100922.43054598183;83384.21423356218
84;78185.47710324923;105304.3833526102;83499.05370722647
85;77712.28142550417;98742.88198141556;82374.00003307736
86;77712.28142550417;107048.21658734175;83120.62790407205
87;77712.28142550417;100771.9484418722;82899.02839858757
88;77712.28142550417;96710.35944588669;82608.6130109637
89;77461.09566975616;96924.9688598186;81584.88886219086
90;76830.63026510722;99965.93817050969;81873.30464553094
91;76830.63026510722;96098.16430275008;81740.96642181206
92;76005.93509674183;101274.3402350048;81804.56802837277
93;76005.93509674183;99010.21500499854;81270.7972540523
94;75645.27308060012;95939.43740272614;81323.43101985751
95;76005.93509674183;94434.00696182421;80547.03600883139
96;75974.64786263401;98638.32892090823;80040.2783783015
97;75758.52775898931;102726.36546174422;80695.03639957917
98;75298.77969453068;97609.14938419718;80165.2330978796
99;75298.77969453068;94687.66375543698;79253.82823882169
100;75298.77969453068;95436.35036451509;80353.4057116497
101;75082.97118837533;97451.86287592839;79889.45838348044
102;75082.97118837533;96571.23109474315;79918.32461798118
103;74843.74836005694;95623.3319275731;78700.95111674568
104;74501.4203681463;96289.60763611084;79782.79378534452
105;74501.4203681463;94682.15137063543;79242.96822339494
106;74333.0625843683;94033.3037295847;79259.14704566737
107;73758.85156213814;88835.87532068617;78039.21309615207
108;73758.85156213814;94261.1555004856;78960.71300165419
109;73681.67287985796;98804.19775461307;78740.19379342053
110;73681.67287985796;93563.07822081533;78993.79007781649
111;73681.67287985796;91232.9975358941;78652.69881260858
112;72903.30794026544;96135.91736716681;77495.24642859143
113;72903.30794026544;94862.90357906814;77141.3679452404
114;72706.97952563879;94563.0329614191;77473.18711260431
115;72706.97952563879;96108.99057639594;77260.7186601761
116;72209.91940444452;97744.43914971502;77576.19717922792
117;71814.9931428485;94703.00758384139;76769.50867056768
118;71759.49472068097;91539.75844475588;76653.28405331234
119;71759.49472068097;91963.8916063975;77357.87669428451
120;71261.1950840824;89477.99743606258;76551.54722185718
121;71215.17436713801;98361.63425239174;75991.38205836953
122;70959.15516653589;93677.89587759342;76135.71525240412
123;70957.194799588;93680.49066641557;76174.20239827235
124;70957.194799588;90563.23037536167;75622.52748716674
125;70957.194799588;101774.5618827538;76454.38237421362
126;70366.04725083138;94261.25171003198;75920.93648872392
127;70366.04725083138;97280.70011394203;75501.27204357242
128;70346.55937032562;92404.04944165234;75415.46993093439
129;70211.49050966643;90230.34509569981;74902.7023045368
130;70211.49050966643;93496.0924391381;74563.89499819557
131;69840.27813526915;93595.63842577371;75139.99631318147
132;69840.27813526915;90443.73688479338;74469.69035630894
133;69465.96325223416;91598.82137527167;74280.81664515105
134;69600.85508040403;94985.50678144032;74799.43563361392
135;69564.23975290108;92389.98321393196;75103.03769359518
136;69108.04178003473;91278.26819706158;74146.30476928137
137;68861.02503437427;97881.0036885333;73732.24458691268
138;69394.32360714403;93521.20402153886;73953.11108233625
139;69312.55864056405;87923.70947751055;72964.68986269739
140;69033.19633685371;87692.8080057765;73244.06653133388
141;69033.19633685371;89163.16780394144;74381.51810532997
142;68873.13572806104;95277.78296624174;74385.51232274457
143;68425.75537296895;84042.6347648077;73230.82000398409
144;68425.75537296895;91514.29933858584;74298.35561605981
145;68425.75537296895;85981.72194948701;72290.81091632979
146;68425.75537296895;90310.4036437686;72734.41081553581
147;68187.24270689678;87979.62503780355;72317.9970761484
148;68119.16047300716;87431.76570451623;72811.96645054473
149;67600.96415733127;95431.51244341941;73804.52409965363
150;67600.96415733127;88403.411260914;72200.80227477684
151;67508.20669725505;89266.69506683547;72666.68159983575
152;67373.3502336308;86791.59452989105;72558.5950555609
153;67373.3502336308;94799.28200507723;73357.9784355099
154;67236.91567491538;91166.06468197536;72585.35481658136
155;67040.91249479167;91473.25235374543;71732.18552350416
156;67040.91249479167;93554.937319952;72361.89518196898
157;67040.91249479167;87579.68255681866;72034.7943061451
158;67040.91249479167;98897.08716217118;71529.32440898517
159;67040.91249479167;85526.56041396924;71999.35098720444
160;67040.91249479167;92442.33485820358;71926.33701418321
161;67040.91249479167;90875.39780965688;72350.69567553612
162;66803.54713488936;81072.0822176877;70471.62460313943
163;66804.7983183077;92119.39628050038;71306.956755501
164;66597.82502994752;83957.19638171121;70128.46796555886
165;66556.70070736048;83286.8937199264;71100.17308642445
166;66556.70070736048;96138.22204826704;71964.95271152252
167;66512.59789245318;96764.39399589322;72232.29957345905
168;66303.93724416185;82920.80073593733;70585.99726944971
169;65690.39044898032;84596.1847705496;71036.6661003517
170;65690.39044898032;87031.08125551976;70511.62295892145
171;65674.47721958645;96208.37004232338;70830.03812600125
172;65674.47721958645;89579.31680203743;70185.04478685495
173;65317.20199842443;89904.97926503493;70145.12872048924
174;65317.20199842443;85770.75458026219;69855.71364654729
175;65202.3735774882;88685.48335701077;70361.99881160408
176;65202.3735774882;94717.35108213928;70862.38463637306
177;65075.42734062723;85472.3425501897;69630.92778748342
178;64587.4104691351;94722.72174342361;70398.13589719475
179;64548.38527165367;86341.4087808952;69955.64551756498
180;64522.72556591847;88413.62990499014;69321.9518265679
181;64522.72556591847;87690.42503026142;69034.80265051883
182;64121.55314046406;86258.34504250016;69602.43789793785
183;64121.55314046406;80945.30110472176;68731.72351810965
184;63667.462782358016;81574.43171956683;68432.75565696822
185;63667.462782358016;89890.75154182297;67688.4228251894
186;63667.462782358016;93601.85166787512;67233.2203459218
187;63667.462782358016;93375.85442368269;68648.19363482019
188;63667.462782358016;84310.37507293269;67800.09476901696
189;63543.535772069976;81097.3332609922;67436.62180511492
190;63478.34204927584;81822.49770572183;68119.86103474935
191;63478.34204927584;85049.19408642098;67772.40926879673
192;63478.34204927584;82546.06923267813;67931.398600952
193;63065.473048559106;84331.9296991919;67927.11913193655
194;63027.77264454911;89150.969017846;68088.09096130371
195;63027.77264454911;85014.84345754307;68730.37063325036
196;63027.77264454911;91521.74930083496;69427.59634391892
197;62220.24101693994;97671.59313926494;68447.87202811564
198;62340.59131316625;80325.68884949455;67668.52771559331
199;62340.59131316625;84399.81108404482;67795.28923749713
200;62340.59131316625;89172.20807154589;68330.78931555072
201;62046.067621739625;89369.51595403213;67196.20322861423
202;62046.067621739625;79049.45385225276;66159.33653568804
203;62046.067621739625;85052.04044432855;66592.6510657768
204;62046.067621739625;91610.54051885239;67617.80887298792
205;61659.73824481064;83298.1075411392;65713.99600062094
206;61659.73824481064;86715.60938650048;65644.18880856017
207;61659.73824481064;80125.71439366665;66089.90864269967
208;60930.88055074225;81643.2135508647;66068.80497376565
209;60930.88055074225;85821.58928718368;67001.14345398438
210;60930.88055074225;87260.71650704926;66613.27518583176
211;60930.88055074225;88207.93300440446;66829.54158867082
212;60930.88055074225;82313.35870855075;65691.66736950012
213;60930.88055074225;78903.82774097355;65536.03999673006
214;60890.41411801003;83617.6930552705;64410.84209262155
215;60890.41411801003;88746.26212706506;65117.2997405496
216;60890.41411801003;87199.01128563071;65059.234640285176
217;60678.30743901001;82460.99673630316;65050.58212804353
218;60678.30743901001;87429.85144654682;65273.63507716274
219;60678.30743901001;86100.73444524918;66584.63349696633
220;60678.30743901001;81056.06644130865;66490.25130027674
221;60678.30743901001;90263.13756496074;64799.206542412896
222;60678.30743901001;82399.9129393942;64427.96731977105
223;60412.71912942677;86143.64623461796;65340.01514005804
224;59945.988328774896;82190.77108411098;65527.60464752891
225;59945.988328774896;83839.46297514041;64374.965381381895
226;59680.40001919167;86861.54483183834;65273.22536208627
227;59680.40001919167;82119.7842488157;64559.11197043692
228;59680.40001919167;82087.08350891939;64624.81916707627
229;59470.89676392403;81319.89001242776;64688.56442612484
230;59470.89676392403;86651.74533951847;64475.044659386454
231;59470.89676392403;79395.09772398147;64231.10167792227
232;59470.89676392403;83024.50150758868;64774.77893596424
233;59470.89676392403;88931.58574911747;65792.33276450034
234;59102.03733993381;78752.43041969709;64026.53946063716
235;59102.03733993381;89578.45547382634;64462.616540782765
236;59102.03733993381;87240.08853654005;64526.155527818475
237;59083.80614408168;79311.0573754041;63839.545736887216
238;59083.80614408168;90272.7342609959;64033.09997769228
239;59001.180983467886;80780.8081817559;63617.65284158126
240;59001.180983467886;75755.27202820334;63131.76860780403
241;59001.180983467886;79934.3646492496;64473.06090828025
242;59001.180983467886;86850.63122120993;64291.20926682681
243;59001.180983467886;80127.10256297488;65075.667804473334
244;59001.180983467886;83495.56100862725;65121.45817295754
245;59001.180983467886;77948.62055797265;63738.12102071007
246;59001.180983467886;82305.80180748625;63853.04758304944
247;58878.75097221682;91107.18149863472;63547.80952072749
248;58862.81512042743;76872.130280154;63226.0063741008
249;58862.81512042743;85837.29065889193;63235.25316610145
250;58859.909100472236;83820.50197919359;64801.0192747189
251;58862.81512042743;80341.16095465817;63731.255345138314
252;58801.56996038387;78166.91422501748;63061.330729060646
253;58801.56996038387;76678.19626270003;63387.65536686299
254;58740.385109176364;82957.78903235373;63845.45400836977
255;58740.385109176364;84378.02069967195;63161.556084574135
256;58158.757244211214;86897.36070453671;63159.46233953469
257;58158.757244211214;84184.6539579436;63868.823207509544
258;58102.70719670784;86393.52550548117;63767.6505555294
259;58102.70719670784;84109.70297498888;63531.489765017395
260;58083.27740007032;78462.25490736344;64209.074540897476
261;58102.70719670784;80278.7706173366;63510.99709018173
262;58040.5036002757;82317.95356952587;61970.33426576834
263;57999.59764326995;79592.34814448566;62553.85590576129
264;57999.59764326995;80289.42328833141;63187.60546464882
265;57980.16784663244;78211.56493749296;62713.1540448853
266;57980.16784663244;85972.28724844186;61906.17826286783
267;57937.3940468378;79526.85336453431;62475.97242870724
268;57937.3940468378;75610.38912079619;62719.351822350065
269;57937.3940468378;76874.1289214402;62525.08561607162
270;57937.3940468378;75466.57743432312;62117.99632881942
271;57919.86127655303;84537.80713152754;62672.424168415906
272;57919.86127655303;77377.51615499589;61996.24545546498
273;57919.86127655303;83548.02764160887;62609.36317043436
274;57919.86127655303;76605.79327944669;61394.96921314136
275;57603.05212267472;78722.10076364559;62168.27567828793
276;57919.86127655303;89981.29414650527;62983.16553016892
277;57919.86127655303;93627.57330244906;62039.3145570846
278;57739.156369071905;78844.40659823857;62358.70326104647
279;57739.156369071905;87024.95529536303;62834.934612939796
280;57739.156369071905;79021.17718082566;62196.27779915596
281;57739.156369071905;88745.75929952128;62238.3198285537
282;57739.156369071905;85850.11842455913;62596.77762239911
283;57739.156369071905;80961.95383958568;62989.05501282835
284;57623.58317834954;79089.2398107054;62986.54783201628
285;57623.58317834954;84551.81766908393;63193.86462829127
286;57623.58317834954;82117.07860976124;62102.45931967688
287;57623.58317834954;78572.41986638613;62604.22154019839
288;57623.58317834954;84840.19456793276;62738.52829729116
289;57623.58317834954;83229.8871273409;62304.60245714217
290;57623.58317834954;81975.42315994199;62708.717485275854
291;57446.539674988715;83493.80561785902;63182.518312346954
292;57446.539674988715;80216.26317028358;62281.4314236644
293;57446.539674988715;87044.40004743171;62570.75477303442
294;57301.938578255766;78537.41166577415;62011.059506505815
295;57301.938578255766;74222.2575775099;61365.143645778524
296;57301.938578255766;85820.87110377499;62774.540140311095
297;57301.938578255766;96407.30747782516;62058.45020687925
298;57301.938578255766;75839.23678488424;61008.33539811496
299;57301.938578255766;76482.5608203778;62514.08861561921
300;57301.938578255766;80275.78793727579;62293.262641200396
301;57301.938578255766;85339.8755853875;61025.557848098746
302;57301.938578255766;84242.34700225064;61477.51286506624
303;57301.938578255766;77445.79507778153;62024.76327548054
304;57301.938578255766;80456.06507091367;60800.3261245054
305;57301.938578255766;79556.20664378892;61546.390379913995
306;57301.938578255766;78298.80353663037;61851.99966804315
307;57126.97274880123;80337.11798888369;60625.43205758798
308;57126.97274880123;74913.33356761484;61748.81538208824
309;57126.97274880123;87226.82021162855;61520.860141919635
310;57126.97274880123;76878.19487427294;61305.32427477294
311;56839.1965679429;78560.3166943105;62197.985916292164
312;56819.72891399576;80748.8153289889;62525.99382371614
313;56819.72891399576;84489.74285245783;62190.07781816977
314;56819.72891399576;76552.61044528945;61679.117453702136
315;56819.72891399576;76845.08530152137;61508.20019043667
316;56698.069374714;81382.80535839206;61173.66075540447
317;56698.069374714;87835.25729128675;62222.02364810339
318;56698.069374714;76361.6511122331;61294.222595477666
319;56698.069374714;84891.06816307105;61463.58929115369
320;56698.069374714;81584.43325824632;61861.76340904266
321;56698.069374714;83589.16887687035;61611.3755127427
322;56539.69073800776;74354.440444126;60911.73906493816
323;56539.69073800776;71169.82650403045;60837.72704619925
324;56539.69073800776;91088.56092727536;60918.130429567216
325;56539.69073800776;81148.22757383867;60883.20577299725
326;56539.69073800776;80996.9027503384;61698.93720763666
327;56381.1108787563;83050.3645067383;61783.47001804116
328;56381.1108787563;82558.83170220141;61994.29116242531
329;56271.91037831899;80004.81155322932;60904.42990737052
330;56271.91037831899;78742.90281886734;62334.66180530274
331;56271.91037831899;88312.17139493846;61130.42818636324
332;56271.91037831899;80500.74339391332;62342.131110404174
333;56271.91037831899;80350.25377996998;62110.701251941806
334;56086.36924915212;84971.36034175087;61851.250805020165
335;56086.36924915212;80072.20125803008;61205.57419098719
336;56086.36924915212;79061.69992048762;61564.70052408763
337;56086.36924915212;81789.02617116345;60989.492914206974
338;56086.36924915212;87809.83572721551;61257.97784274939
339;56086.36924915212;83783.83860784382;60766.55936266328
340;56086.36924915212;77259.72807655262;60639.61822753478
341;55664.28310992186;76197.62781152505;60530.937588245586
342;55664.28310992186;75740.45658825643;60903.07829594104
343;55664.28310992186;85964.09098314017;61098.28475835368
344;55591.26301891616;78709.27056332552;61184.20765433467
345;55591.26301891616;78687.94710959443;61051.22185045414
346;55591.26301891616;75967.96634024385;60558.3731412393
347;55515.20499555468;76077.75116799863;59818.77236186745
348;55515.20499555468;87631.62189160139;61357.33922785587
349;55515.20499555468;78365.09750782247;60802.7530166143
350;55515.20499555468;76258.58520974265;60406.79601000852
351;55515.20499555468;81516.90435114753;61439.1242532486
352;55515.20499555468;82745.75699023218;60069.57805585624
353;55399.62677488093;77026.06667712724;58940.52635632624
354;55399.62677488093;84481.7408114044;59531.0481586798
355;55399.62677488093;81694.3677684599;60727.900393035074
356;55399.62677488093;82203.84510028813;60136.02385990228
357;55399.62677488093;71702.67280514435;59357.53062798216
358;55286.25311264243;80254.12310996569;59484.6418472105
359;55286.25311264243;85530.28776758868;59204.57390999322
360;55207.18883491327;76819.60820044896;59389.22005295274
361;55207.18883491327;79954.75443009299;60542.328874607236
362;55207.18883491327;77881.76637841611;59153.970590253426
363;55207.18883491327;74657.49578901756;59177.61258675146
364;55207.18883491327;83762.53557265646;59360.82460834885
365;54977.206355485665;77525.26238114221;59705.60909405584
366;54977.206355485665;89080.2612769078;60376.02708788888
367;54977.206355485665;87596.10756678812;59483.14030912835
368;54952.59311040756;87427.95439872125;59976.67992564773
369;54952.59311040756;76065.18643126063;59043.80545040322
370;54952.59311040756;88262.11668551115;59283.30274330522
371;54952.59311040756;74112.19083305121;58952.391571390304
372;54952.59311040756;84671.8250734182;59384.285215841875
373;54952.59311040756;81395.83226791244;59441.540579866196
374;54871.42397689723;77689.55259676142;59114.11008369661
375;54871.42397689723;76049.95324283495;59058.094323316946
376;54952.59311040756;88104.23701649651;60071.56989690833
377;54952.59311040756;80036.61454570892;60410.220317683306
378;54952.59311040756;72189.04070422947;58760.73401357783
379;54952.59311040756;92896.95145367116;60062.07470057702
380;54952.59311040756;79552.87948890874;59789.364515339425
381;54925.988278514254;77588.09120507767;60093.45973101567
382;54865.65833213648;77169.91732412124;59710.589466184836
383;54865.65833213648;82845.36661824973;60244.54240880723
384;54865.65833213648;75581.70241413776;59758.09587764835
385;54865.65833213648;77333.95612520307;59237.80769363498
386;54865.65833213648;83187.59103155458;58658.81830672443
387;54865.65833213648;78994.9570367566;60186.10389271409
388;54839.05350024319;78289.94813054345;59452.32954356477
389;54839.05350024319;78627.16899136255;59559.383108450704
390;54839.05350024319;78208.44105532084;59894.40327169556
391;54743.22832088541;79965.95571798043;59347.282363799975
392;54743.22832088541;85072.98912177922;58969.85655450451
393;54696.41661015478;79526.0499159492;59424.55400987126
394;54153.2474860244;74574.67424687545;59476.68786340372
395;54153.2474860244;79027.73476624535;59796.27187180725
396;54153.2474860244;81119.78228945096;58417.40424253814
397;54153.2474860244;83440.51967529139;60196.08347356779
398;54030.817474773314;79518.25806017581;61072.44033578379
399;54030.817474773314;89194.05730849439;58635.83445015646
400;54030.817474773314;82650.65620495837;59397.85121976281
401;54030.817474773314;75883.70112356926;59391.74073991129
402;54030.817474773314;80889.12306431195;59711.79982992651
403;54030.817474773314;73875.10958617833;59420.758989592214
404;54029.55739840328;78328.98038734;58873.18095889158
405;54029.55739840328;77785.2969027511;59216.35204654166
406;54029.55739840328;74075.79570182333;58575.29768011743
407;54029.55739840328;74342.37394919623;59534.706954115776
408;54029.55739840328;82156.6939721693;59660.8176153868
409;53964.772359115086;76571.56654176157;59676.133233078785
410;53964.772359115086;70232.35466676163;57984.49380865501
411;53964.772359115086;78953.19324318586;58804.523887104384
412;53964.772359115086;81956.91012510151;58524.46630168203
413;53964.772359115086;75389.54075116791;58082.65141073198
414;53964.772359115086;84465.38810547456;58630.161963509534
415;53964.772359115086;81458.04580291032;59164.88386960952
416;53964.772359115086;78307.07540681024;57841.89712093399
417;53964.772359115086;78423.52237684345;59310.340104735194
418;53964.772359115086;79068.2994379881;58130.2319533495
419;53964.772359115086;75599.08980332749;58962.85313776266
420;53964.772359115086;81924.30929098009;59443.07642922098
421;53964.772359115086;78142.16007595739;58933.48754904835
422;53964.772359115086;76159.89960171167;58610.697098698554
423;53964.772359115086;81192.64774466101;58975.96943333927
424;53964.772359115086;72286.76796312036;57994.00790952691
425;53964.772359115086;77488.79768535525;58308.98124987785
426;53964.772359115086;90743.87839952875;59565.4802539014
427;53964.772359115086;89818.35458169822;59788.24839813049
428;53964.772359115086;80758.8895117611;59616.86059158589
429;53964.772359115086;77858.32660317834;59085.72177368499
430;53964.772359115086;73162.59885793079;58269.618960574335
431;53964.772359115086;75817.6295780877;58091.018816477794
432;53964.772359115086;81242.33571334578;59042.17184555687
433;53964.772359115086;80905.53518139124;58713.655021763
434;53964.772359115086;81886.38156721584;58826.38382779816
435;53964.772359115086;75488.49140495097;58737.32364668275
436;53964.772359115086;75691.28111860066;59048.39602589583
437;53628.11401375537;77763.79857306914;58087.694870201805
438;53876.946939870955;79815.0752375609;57929.57388238167
439;53876.946939870955;86448.9998879529;58555.44526137422
440;53876.14625031275;73253.9397167679;58392.56881157329
441;53876.14625031275;88281.19072168821;58898.45807605093
442;53762.56248565591;80814.35228794097;59373.33667114445
443;53762.56248565591;76721.16773835511;58989.01119981391
444;53762.56248565591;76252.22849739107;58921.818008542265
445;53762.56248565591;72641.72685030157;57800.70844833484
446;53762.56248565591;75127.85591439436;57980.818339920195
447;53762.56248565591;75628.0072070732;58402.17767176099
448;53762.56248565591;78468.40842053872;58938.77134963974
449;53762.56248565591;74072.77804641548;58413.85226928153
450;53762.56248565591;74505.98947511753;58410.7589550039
451;53624.96526506516;75379.79411861999;59164.46823856975
452;53624.96526506516;88362.36203530879;59913.03173266352
453;53624.96526506516;78871.32440845115;59120.28893905599
454;53624.96526506516;92052.82999390265;59215.925609755424
455;53624.96526506516;82227.61439159715;58514.75967665366
456;53624.96526506516;79308.89697304917;58884.38012747488
457;53624.96526506516;73833.62542480539;58203.41549569086
458;53624.96526506516;73430.31803710198;58431.89764480521
459;53624.96526506516;79965.76564414822;58489.614843569536
460;53624.96526506516;76309.64303686147;58506.271455633294
461;53624.96526506516;78252.34929880235;58383.84902499403
462;53624.96526506516;89773.24305720857;58267.71381963388
463;53624.96526506516;74982.16301528395;58050.47576332815
464;53624.96526506516;74844.52333734835;57808.1319236462
465;53624.96526506516;79863.61142734913;58089.13447523922
466;53609.62989649182;83100.75963689438;57957.22921897005
467;53598.09843658734;74950.66929166648;57655.94593904709
468;53598.09843658734;74966.89428390529;59115.92903058669
469;53586.68470601008;74518.90575134166;58264.64139350807
470;53586.68470601008;77051.83682688828;58572.094078734226
471;53586.68470601008;74463.45320638959;59339.9968282479
472;53586.68470601008;83667.60237536737;58449.85709715903
473;53548.24841711255;74423.57991190346;57862.401052223526
474;53548.24841711255;87317.67459276345;59216.75848396973
475;53548.24841711255;74395.6373981094;57824.73116688959
476;53548.24841711255;81255.63236535725;58827.921266904275
477;53548.24841711255;75765.34501962335;58001.15860662971
478;53548.24841711255;74135.02911268128;57110.89306084815
479;53548.24841711255;84098.29522567449;58836.305946046545
480;53548.24841711255;77375.13183652285;57801.45379792245
481;53548.24841711255;83493.72580067952;58705.29531366069
482;53447.15220486612;77569.69572193881;58666.24045104404
483;53447.15220486612;78593.99001938908;58984.30915149021
484;53447.15220486612;83232.7745518275;59112.34516937888
485;53447.15220486612;75494.14917316713;58400.51304416093
486;53447.15220486612;84182.33873099381;57895.520194184865
487;53358.61876510019;95191.77792713509;58763.52118963752
488;53358.61876510019;78294.8152521512;58535.89319261821
489;53358.61876510019;72557.81082149157;58084.18977431654
490;53358.61876510019;71946.7857819768;57673.82064000674
491;53358.61876510019;76877.49958135595;57959.3861385078
492;53358.61876510019;70621.5170778132;57278.36385084662
493;53358.61876510019;72702.26726229893;57091.58754987096
494;53358.61876510019;75134.82738023592;58305.59023394884
495;53358.61876510019;82483.49212601401;58177.27675468278
496;53358.61876510019;85127.34158272242;58126.79890868694
497;53358.61876510019;78667.73546470611;58964.79186700743
498;53358.61876510019;71754.7315366239;57011.43580072726
499;53358.61876510019;82855.68178201525;58516.05219033282
500;53358.61876510019;79611.28732824595;59222.69147602315
501;53358.61876510019;76411.96574800607;58441.52557156976
502;53356.15857819257;80988.40682409049;58205.198033633555
503;53338.22549143337;74967.67617235081;57141.51101685341
504;53338.22549143337;76212.42276580574;58236.45880003504
505;53338.22549143337;76351.03135808496;58559.80054976123
506;53338.22549143337;74970.81720607608;57386.3596503886
507;53338.22549143337;81272.52018114885;57778.80422597429
508;53338.22549143337;82935.14645318648;57765.987881888694
509;53338.22549143337;84405.46555430006;58711.29039223875
510;53338.22549143337;84901.41704497115;59050.91634389621
511;53338.22549143337;79231.58180362248;58425.522194925405
512;53338.22549143337;73088.11188846115;58115.93649531116
513;53338.22549143337;76533.99915974295;57874.84718391725
514;53338.22549143337;83023.15791885991;57886.46913801856
515;53338.22549143337;78337.73717914625;58325.99367161834
516;53338.22549143337;75738.99081870767;57714.91706746574
517;53338.22549143337;75376.05524389278;57878.28451810657
518;53338.22549143337;81101.98356297225;58524.69355546683
519;53338.22549143337;73920.95068705786;58196.64562364948
520;53338.22549143337;76109.68275684182;58141.70718670029
521;53338.22549143337;76872.4129514709;57989.80410532795
522;53338.22549143337;77347.68683594686;57856.463338226036
523;53338.22549143337;79984.16602282955;57498.307102415456
524;53338.22549143337;73747.29581368603;58031.66323275599
525;53272.47802269392;79578.58630582721;57733.76448997975
526;53272.47802269392;75534.28049379823;57436.75692131647
527;53272.47802269392;79804.28594935007;57978.26932016024
528;53272.47802269392;74963.37907812081;57899.642590244366
529;53272.47802269392;78884.18713590856;58972.70958979209
530;53272.47802269392;76519.24661572679;57495.58750898028
531;53272.47802269392;80327.39149201836;57929.5072606061
532;53272.47802269392;73624.1903231769;57276.218573362974
533;53152.33812898518;72146.185335408;57247.511469254125
534;53138.44801077001;77254.22077828237;58303.66953305877
535;53138.44801077001;76782.71386963213;58177.02332519579
536;52970.964679500175;75567.5863683437;57893.996846818176
537;52970.964679500175;79761.71217645334;58854.9625366969
538;52970.964679500175;76212.78760719251;58077.59681439872
539;52970.964679500175;80044.98333140367;58224.485279109525
540;52970.964679500175;79256.5108050686;58223.35517474284
541;52970.964679500175;77990.8647000998;57167.4598349158
542;52970.964679500175;81261.89313591426;57787.6112702495
543;52836.934667576264;79939.76870519566;59009.46822618724
544;52836.934667576264;72945.6844387367;57456.05719887485
545;52836.934667576264;74596.79217871287;57586.53333491968
546;52836.934667576264;74462.21538276938;58046.41777717365
547;52836.934667576264;77379.59719869203;57493.22905749183
548;52480.61073013194;75532.44393359154;57261.60745711734
549;52480.61073013194;73710.91758462982;57050.63350705263
550;52480.61073013194;77290.48308221773;57843.189320184625
551;52273.26432116612;76750.66100851647;57313.53026181749
552;52273.26432116612;80770.72647013725;57824.6325989467
553;52273.26432116612;73220.17074539444;57413.09784126178
554;52273.26432116612;73618.49422521573;57274.72825658342
555;52273.26432116612;78577.31817569044;56934.99874336742
556;52273.26432116612;70295.96127314644;56532.55632442396
557;52273.26432116612;74259.01611822803;57066.36411748327
558;52255.81526551285;77743.10410997363;56849.87404729036
559;52255.81526551285;79691.76830653929;56152.193625449996
560;52255.81526551285;76977.30363127064;57055.370925369614
561;52255.81526551285;83379.5547648205;57275.776926626946
562;52255.81526551285;76765.43490799528;56876.05250177639
563;52255.81526551285;71451.57215583141;56639.160500087404
564;52206.61661442864;76080.03627194821;57491.91051348102
565;52206.61661442864;74057.07082366833;57087.054476203266
566;52206.61661442864;76828.33627418497;56472.98361631167
567;52172.735554328814;75628.60657991766;57994.578774790614
568;52172.735554328814;75950.55796088015;56031.09941433869
569;52172.735554328814;77768.29185361216;55779.2730456544
570;52172.735554328814;75882.97340703015;56603.51937417022
571;52172.735554328814;75310.95377375971;57318.24393660398
572;52172.735554328814;79867.44833774611;57128.69222037786
573;52172.735554328814;79540.29551489974;57025.437901343495
574;52172.735554328814;74395.48571343868;56574.86389878343
575;52172.735554328814;74735.78709104414;56760.82046288591
576;52172.735554328814;77231.62817512483;56449.667017396736
577;52067.82628762182;71462.29634805689;57464.86247740493
578;52067.82628762182;78411.32675125414;57131.56040875713
579;52067.82628762182;75580.52321429318;56472.80693394947
580;52067.82628762182;77142.1806743151;56734.32828321602
581;52067.82628762182;68462.42624355528;55280.59939454796
582;52067.82628762182;78018.8909187305;56033.70014671864
583;51993.46928126551;77639.55605972139;56895.914313753165
584;51993.46928126551;85617.64503625024;57637.034710915184
585;51993.46928126551;76308.83334546346;57565.438515066424
586;51991.00909435789;74691.04302999002;56954.5583617151
587;51690.57965602583;77155.95371589283;55791.95397039338
588;51690.57965602583;80929.75265484872;56769.018742942324
589;51688.11946911821;72150.87580243508;56315.13981112493
590;51688.11946911821;69662.82780934934;55881.32378203303
591;51688.11946911821;73495.61664863523;56222.9524757612
592;51688.11946911821;77526.66333118771;56637.50194693329
593;51688.11946911821;77922.12597678712;56170.83929310968
594;51688.11946911821;79492.28761151353;56736.27901250666
595;51688.11946911821;79483.24174330082;56600.32354699156
596;51616.71501366785;80910.04038788365;57207.11197004593
597;51605.16721031248;77547.69195700125;56873.51125107924
598;51616.71501366785;86936.12822127732;55925.165602991394
599;51616.71501366785;74551.16004699569;56349.97105322345
600;51616.71501366785;76568.93293156453;57248.31354498547
601;51616.71501366785;78407.22505870757;55315.42286485101
602;51616.71501366785;77284.19900483023;56011.09435646918
603;51616.71501366785;76054.71380788668;56706.79409569161
604;51616.71501366785;71879.75617532503;56519.645405365474
605;51616.71501366785;74302.34873283085;56004.09847976812
606;51616.71501366785;78450.16922350565;56185.819521396
607;51211.88383986597;78851.5598148127;56089.40020033378
608;51211.88383986597;69072.77671374081;55791.73325986661
609;51211.88383986597;74504.38159176636;56172.62344800957
610;51211.88383986597;82286.14574193723;57760.23875024216
611;51211.88383986597;85031.05803593411;55714.01746698882
612;51128.89159477671;85472.4502486969;56852.02378658621
613;51128.89159477671;78477.26620134401;55883.5091754211
614;51128.89159477671;76469.22114474313;56716.273942590655
615;51128.89159477671;74671.0637362198;55858.13120200199
616;51079.28021550347;69700.1316363189;55117.34702508443
617;51079.28021550347;70810.91600848518;55156.71954175887
618;51079.28021550347;70552.79571305656;55757.18792883557
619;51079.28021550347;81923.03332813628;56959.05662299938
620;51079.28021550347;81065.47850962143;57178.497952076614
621;50946.467290098575;75282.54784139185;55028.21435114132
622;50946.467290098575;73747.94492186102;56057.11081313073
623;50946.467290098575;75556.66673025786;55450.39117456936
624;50946.467290098575;75428.54875118857;56295.60183262958
625;50946.467290098575;72880.88016615686;55210.897346995764
626;50946.467290098575;81166.1720310789;56839.57701796961
627;50946.467290098575;76491.5522723266;55344.80915121547
628;50946.467290098575;71473.00555021422;55162.663838618806
629;50946.467290098575;85805.03541851402;55200.7002354349
630;50946.467290098575;68378.87107972927;55422.329287480505
631;50946.467290098575;81700.61468163773;56499.268233567076
632;50946.467290098575;76384.33631015489;55793.85747780724
633;50946.467290098575;70844.52115648611;55888.558944621036
634;50946.467290098575;72828.6641863399;54957.31543055494
635;50946.467290098575;69622.38627455127;55372.43185123648
636;50946.467290098575;64943.73073683299;54888.16536454241
637;50946.467290098575;72240.29429638975;55663.50974429242
638;50777.313594616804;73453.5870562392;56116.31603432023
639;50931.74307601385;76728.5254185168;56361.3266137992
640;50931.74307601385;70112.11746420141;55815.74595719586
641;50835.08343138355;77701.20977294749;54970.88515153674
642;50835.08343138355;82274.45241133955;56031.19235913425
643;50835.08343138355;71630.05235206796;54771.43839904465
644;50835.08343138355;77016.25815737422;55598.67669297696
645;50835.08343138355;72385.24889595067;55842.60394807314
646;50835.08343138355;73824.13362007546;55407.44557116847
647;50835.08343138355;71429.29752513814;55110.87648430868
648;50835.08343138355;72806.20851213063;56236.10789428537
649;50835.08343138355;73689.66603654323;54548.860105455984
650;50835.08343138355;77986.37752679407;56250.18919684107
651;50835.08343138355;72771.43414400224;56093.85842895202
652;50835.08343138355;76778.01078791014;55358.59699888821
653;50835.08343138355;75318.72218502889;55571.469830769725
654;50835.08343138355;68255.12339684567;56327.14868320249
655;50744.752510099264;68741.63243043922;55914.48132982615
656;50725.27413620561;85821.74858377226;56202.47627267791
657;50725.27413620561;74259.10250732284;56118.073745325804
658;50725.27413620561;74595.42074927907;55876.09243258853
659;50725.27413620561;72765.9969448826;54794.51279423785
660;50687.006912007855;76432.3121013502;55798.728236324656
661;50687.006912007855;71574.40377306443;55127.08903775771
662;50687.006912007855;74229.51131703687;54598.0189842638
663;50687.006912007855;72790.22034517898;55077.88329820171
664;50664.21924296172;79333.60638092738;55133.61179988491
665;50572.847068168354;71797.24222445703;55187.872425665446
666;50572.847068168354;84710.67811554752;55167.16885949972
667;50572.847068168354;86156.81139836283;56856.95310061173
668;50572.847068168354;79564.91366747803;56624.4265484917
669;50572.847068168354;85669.85929691525;55249.341289961245
670;50572.847068168354;76015.38169587709;55236.3847919923
671;50572.847068168354;69088.3754417681;54641.92968746164
672;50572.847068168354;74287.49748110207;53995.20806517595
673;50013.06303299041;75792.04792962303;54984.29929099768
674;50013.06303299041;71780.68116831196;54633.29327168576
675;49916.23988691614;72461.44858798645;56207.24591368409
676;49916.23988691614;80129.91472639465;54827.964665749016
677;49891.20618996458;75569.30906467224;54890.99676211068
678;49688.72110370199;77795.9912964278;55069.7899695072
679;49688.72110370199;74883.05721750998;55234.97927325828
680;49688.72110370199;88185.08895818534;55779.131067365044
681;49688.72110370199;72085.46654814284;53900.33099026861
682;49688.72110370199;79016.6201370806;55926.5496970805
683;49688.72110370199;73752.13546225907;55023.95012911762
684;49624.78168693138;69962.70859929922;53313.17948318738
685;49624.78168693138;75717.89207135008;53929.18609656963
686;49624.78168693138;74727.27376065856;55183.55259964571
687;49624.78168693138;72012.36364204908;54768.32625784063
688;49624.78168693138;68951.57629392734;54548.2869711668
689;49624.78168693138;65872.47541252432;54193.003652719155
690;49624.78168693138;82380.0703422792;55187.15116697576
691;49624.78168693138;79878.64712471055;53999.32204988072
692;49624.78168693138;79218.33674834608;54789.431889365915
693;49624.78168693138;84951.6677488893;54933.28053548481
694;49624.78168693138;65775.06855377916;54082.9329639001
695;49624.78168693138;73999.38386263198;55011.79877463471
696;49624.78168693138;78875.48723601435;54732.08548946681
697;49624.78168693138;71765.4404675287;53834.93528840311
698;49624.78168693138;72714.74539454684;54697.06646737066
699;49624.78168693138;80767.30610253169;55064.432229973674
700;49624.78168693138;77222.71063370827;54166.5133857207
701;49624.78168693138;71856.32139264443;54318.20498725696
702;49624.78168693138;76114.81010602007;54870.32884423295
703;49624.78168693138;77234.8333355615;54830.841249047815
704;49452.9938130866;72950.39064702136;54791.74530786939
705;49452.9938130866;70618.45901148727;53838.4768571247
706;49436.97677565956;74481.21038695898;54217.50322316972
707;49452.9938130866;72648.90527538292;54783.11435210588
708;49452.9938130866;73697.31991284426;55490.63948441674
709;49432.52907673282;84102.9118231639;55398.1988820566
710;49432.52907673282;84983.14469667565;55422.616225523474
711;49432.52907673282;83182.17565465039;54515.713493074254
712;49432.52907673282;71071.84871681017;53615.09168356495
713;49432.52907673282;72861.71157164364;54120.143842637466
714;49432.52907673282;67788.83985321109;53714.64760230717
715;49432.52907673282;71861.89584364009;53236.73417785423
716;49432.52907673282;71345.02199106252;54063.183154448656
717;49373.90978233507;76520.89057956127;54114.04416197056
718;49373.90978233507;82530.41344976582;54710.84015540193
719;49373.90978233507;78913.9255186674;54784.89094789995
720;49373.90978233507;83569.16768889899;54482.26717924291
721;49373.90978233507;71655.34579416052;53887.696504084335
722;49373.90978233507;75483.15328442435;55281.878379638445
723;49373.90978233507;73103.00087199036;53625.26805303755
724;49373.90978233507;76156.79000604483;53694.1154621175
725;49373.90978233507;70679.27315694864;54671.27420088801
726;49373.90978233507;76251.32645802155;54682.81367878764
727;49373.90978233507;65383.08897283799;52465.14782014639
728;49373.90978233507;76931.65929689059;53871.128707013086
729;49373.90978233507;77059.83464088604;54584.06168674218
730;49373.90978233507;88790.09786629303;53875.995402939625
731;49344.58907212466;72443.17812871357;53592.22573182611
732;49344.58907212466;66668.53009402141;53738.12997463988
733;49344.58907212466;71235.28833361428;54031.55179249323
734;49344.58907212466;74682.79035597478;54613.982257808515
735;49344.58907212466;78061.54885896081;53299.20960864266
736;49344.58907212466;65769.28460750887;53884.77806507735
737;49344.58907212466;71614.60816812285;54517.873292535485
738;49344.58907212466;86447.28366419867;55117.48633049993
739;49128.78332268172;73768.69087093405;54566.73270797477
740;49128.78332268172;69748.11202453777;53491.14533033273
741;49128.78332268172;76713.46187438788;54332.14637743047
742;49128.78332268172;67057.22448044311;53295.487260864786
743;49128.78332268172;78846.2090921107;52974.72873738049
744;49128.78332268172;80681.35493260519;53640.06857013559
745;49128.78332268172;68337.57307554207;54026.84517610895
746;49128.78332268172;72718.59728656647;54096.4142377502
747;49128.78332268172;73668.79694584485;53307.28560993981
748;48947.63079623989;78922.44511550009;53318.13054156665
749;48925.79203161233;82141.67188314073;53594.26398276442
750;48925.79203161233;76143.54504848272;53848.011422764284
751;48925.79203161233;75143.75481427074;54225.46917691128
752;48925.79203161233;74443.7378371951;53437.095414581236
753;48925.79203161233;84499.69314894694;54386.83449444108
754;48925.79203161233;73828.79179192265;53978.73012008907
755;48925.79203161233;69446.35010123243;53426.12840044455
756;48925.79203161233;74602.38501771011;53486.25569013889
757;48925.79203161233;75401.28886896427;52930.610311777666
758;48925.79203161233;69298.91587538186;53046.60627987678
759;48925.79203161233;74594.28381981367;53870.322378333156
760;48780.330298637076;84288.61271602858;55369.89441654626
761;48925.79203161233;73778.01625438937;53269.987624753136
762;48679.27397992381;66676.36193055107;53464.17310346745
763;48878.00680385944;84345.72339598997;54043.88427203724
764;48878.00680385944;69796.92665362798;53594.652840938186
765;48878.00680385944;67929.7906114596;53842.01204290604
766;48878.00680385944;77485.6325411065;53580.091206750825
767;48878.00680385944;75895.66126602427;54156.21722804958
768;48878.00680385944;78842.84076206201;54712.14816070687
769;48878.00680385944;71750.92369474465;54276.70419404959
770;48878.00680385944;86723.82179927551;53650.86287333211
771;48878.00680385944;76602.47598567489;53555.065782997335
772;48878.00680385944;74456.85011105073;54299.61398333787
773;48648.78078979199;82403.1936564671;53593.73907928444
774;48648.78078979199;83565.18102619208;53952.90274154521
775;48648.78078979199;67168.42339099568;53051.978357037835
776;48648.78078979199;76074.9017949979;53639.693737557835
777;48648.78078979199;75232.98686645765;53839.282048009314
778;48648.78078979199;64663.263916861586;52957.61073146915
779;48482.57032292411;81297.1980748001;54247.41599768373
780;48482.57032292411;73611.79338615698;53321.867897119606
781;48482.57032292411;81768.57367837215;54394.30853362969
782;48482.57032292411;74434.31589316954;54121.661509885074
783;48482.57032292411;86360.38608937702;53360.46717279534
784;48482.57032292411;75179.83011077814;52244.607523743725
785;48482.57032292411;67744.33186276625;53056.44829786902
786;48482.57032292411;68910.37138305666;53057.95347790854
787;48482.57032292411;84720.7449530613;53340.890132623455
788;48482.57032292411;69544.99829450437;53461.22964664253
789;48482.57032292411;74072.18702357078;52934.68274203228
790;48482.57032292411;81705.78733440125;53015.50247807608
791;48482.57032292411;69593.80634408945;53828.564946552295
792;48482.57032292411;75895.209468073;53877.659852026605
793;48482.57032292411;91914.03538197759;53784.468471244785
794;48482.57032292411;69850.86340227643;52509.73975418815
795;48482.57032292411;79955.64551690151;53304.344815590026
796;48482.57032292411;73411.35491225425;54437.05045888391
797;48482.57032292411;76632.03040688318;54006.14042201675
798;48482.57032292411;74669.36799675279;52373.88463252074
799;48337.10858994886;67083.84542389846;52734.87612214784
800;48337.10858994886;66962.48206317147;52423.01635442075
801;48337.10858994886;77796.90413575953;53026.38252085405
802;48337.10858994886;66739.38181079419;53503.245114988524
803;48337.10858994886;74014.63986141651;53368.271799889764
804;48337.10858994886;69810.36850688461;53005.46844435976
805;48337.10858994886;72920.48523130463;52512.065922545225
806;48337.10858994886;71651.38624138517;52685.81308387297
807;48337.10858994886;81958.9037035279;53580.340941924456
808;48337.10858994886;81528.9038517847;52683.73120234278
809;48337.10858994886;73726.69638309005;53207.62038585538
810;48337.10858994886;77502.62183234216;54003.967986597876
811;48337.10858994886;67846.87786942504;53208.885359444146
812;48337.10858994886;70604.56793860967;53880.21626657215
813;48204.359533683695;74131.27928896325;52472.232669061974
814;48204.359533683695;71985.531005229;52877.03769398597
815;48204.359533683695;75851.904906861;53955.83477920459
816;48204.359533683695;71552.31980078151;52866.99060283426
817;48204.359533683695;82992.00333428098;53661.13828730497
818;48204.359533683695;82561.55559909435;53860.12274779424
819;48204.359533683695;68770.88797713985;53640.042801667165
820;48204.359533683695;70401.28724769027;53359.55399977186
821;48192.639750315146;73832.44837250523;52724.80073311721
822;48192.639750315146;80343.51241281827;53385.4727625563
823;48141.37721569792;66292.94295327166;52479.525827293124
824;48141.37721569792;76109.70741672414;54139.89416636616
825;48141.37721569792;83862.048022004;53751.00351253119
826;48031.30283879419;77096.71718488637;52764.23586719673
827;47980.04030417696;75249.9699412934;52829.912050250154
828;47980.04030417696;70062.25426687265;52711.897741936824
829;47980.04030417696;68893.52858687534;52569.273534626744
830;47980.04030417696;75435.92408684819;51901.117973526234
831;47980.04030417696;66818.02325696131;52058.119438989066
832;47980.04030417696;77699.44340966464;52907.3929890842
833;47980.04030417696;71736.10624046065;53590.46398365512
834;47980.04030417696;69135.10510630696;52868.80382317377
835;47980.04030417696;71218.96140820908;52512.02153153817
836;47980.04030417696;73335.82476349184;52269.36068981687
837;47980.04030417696;69218.31535008606;53371.7152801384
838;47795.49387565646;70775.80002841326;53747.90539607681
839;47795.49387565646;64778.39332119569;52186.15715984494
840;47795.49387565646;76949.34549939698;52956.777665060916
841;47795.49387565646;67990.55600386714;52052.46055440352
842;47795.49387565646;76019.42898371491;53064.20620912107
843;47795.49387565646;66992.76558797277;52042.33861288765
844;47795.49387565646;65599.73731514458;52308.769598845865
845;47795.49387565646;74766.26044842725;53161.115735007814
846;47795.49387565646;72767.64028851209;52756.79232454218
847;47731.43563761208;71593.85801993647;52912.85304429571
848;47731.43563761208;73063.88060427325;53448.56184661808
849;47731.43563761208;71556.26278346436;51898.72769835747
850;47731.43563761208;71141.12450615398;53230.10911335747
851;47731.43563761208;79539.84049399516;53757.111965150165
852;47731.43563761208;70402.14562900373;53286.83491113129
853;47731.43563761208;70561.471592826;52226.76654093056
854;47731.43563761208;73439.4338384878;52838.15774380345
855;47731.43563761208;69588.65877510463;53487.02957137837
856;47731.43563761208;70205.00770332605;53430.31528552203
857;47731.43563761208;83528.6093771551;52718.27915509377
858;47731.43563761208;68397.45972868621;52365.27994301458
859;47731.43563761208;78200.59405233675;52060.15076010023
860;47731.43563761208;76638.83607025389;52672.366335515064
861;47729.522102981406;67332.70738657015;52219.277265443656
862;47729.522102981406;73231.68573656226;52652.31198336772
863;47729.522102981406;78898.25261720811;52032.49405869369
864;47729.522102981406;86020.75020359382;52533.16923769058
865;47729.522102981406;67873.9733914693;52574.70318299847
866;47691.27166941249;64735.51067949151;52359.22071481432
867;47691.27166941249;72899.0616484219;53151.30456239035
868;47691.27166941249;72818.07902711828;52742.40511969433
869;47691.27166941249;76798.80959941683;53036.83817699747
870;47691.27166941249;74277.90284318804;52608.204553012045
871;47691.27166941249;69959.18825231776;52452.22797862907
872;47691.27166941249;71830.6578222678;53049.61815365334
873;47691.27166941249;67913.10806979873;52779.03542205548
874;47691.27166941249;71783.20244173305;52215.44137978458
875;47691.27166941249;75960.82013117518;52706.725596247714
876;47691.27166941249;76085.63066733835;52959.385789523105
877;47691.27166941249;71720.09138021282;52813.06647779843
878;47691.27166941249;68229.77284654201;51784.37215499697
879;47691.27166941249;68962.18179295083;52680.61324842355
880;47691.27166941249;71005.30829062892;53170.641513758485
881;47691.27166941249;80344.70764019832;52769.735684203806
882;47691.27166941249;72136.02453326035;52778.36587569818
883;47691.27166941249;71558.27152481489;52902.98729695831
884;47691.27166941249;72576.113861577;52816.901722682815
885;47691.27166941249;74694.6978915499;52963.797458180736
886;47636.73019616296;69478.442570343;52897.544177744836
887;47636.73019616296;73280.25526091036;53197.2893696449
888;47636.73019616296;75113.52686257391;53446.99566442533
889;47636.73019616296;69606.41928948081;52472.846807835136
890;47636.73019616296;75424.8080881599;52979.230570387495
891;47636.73019616296;77286.04372322749;52703.29443311418
892;47630.520556378935;73922.7161067248;52351.792184988066
893;47636.73019616296;77011.19201531276;52970.00383662604
894;47635.044278870075;82334.40004184033;52745.3735629731
895;47635.044278870075;67237.14894008012;52236.729623650805
896;47635.044278870075;73406.3369682867;52865.4408570736
897;47635.044278870075;71633.1649742303;51684.33810348385
898;47635.044278870075;77816.90934543185;51744.8369171326
899;47635.044278870075;73805.71005927018;51917.590182444685
900;47635.044278870075;92033.32390751761;53247.261336031705
901;47635.044278870075;71672.50016667372;52545.44527731966
902;47635.044278870075;71070.8730480091;52719.62157804481
903;47635.044278870075;73599.60937830509;51733.98019084763
904;47635.044278870075;73251.99135096827;52379.55769730968
905;47635.044278870075;67112.16405754084;51907.46992705752
906;47635.044278870075;69123.56912086606;51575.317592803825
907;47635.044278870075;78257.75998834176;52451.60684240822
908;47635.044278870075;76175.79389823547;52044.44706070693
909;47635.044278870075;69926.37226197631;51254.15958623201
910;47635.044278870075;68153.75702315604;51242.05649099749
911;47635.044278870075;73391.14434801805;52677.26418702664
912;47635.044278870075;83500.58869139735;53286.87627650464
913;47635.044278870075;70111.12269772509;52886.98737012116
914;47635.044278870075;73145.70567057992;52166.107132704965
915;47635.044278870075;71515.62341487844;52822.54520697184
916;47635.044278870075;65268.590473887816;51254.121996080714
917;47635.044278870075;68909.91663445934;52713.56259769351
918;47635.044278870075;77488.04211563947;53137.749338185975
919;47635.044278870075;67546.55471396523;52195.74970938943
920;47635.044278870075;75985.79451021073;52881.92052465003
921;47635.044278870075;72100.47536679877;53459.40445151045
922;47635.044278870075;68124.2440992922;51854.439201823625
923;47635.044278870075;70128.59829780905;52296.12472170778
924;47635.044278870075;68558.0243710898;53096.26536600432
925;47635.044278870075;79389.13907785005;52873.49985182621
926;47635.044278870075;69650.64299441825;53007.22950769751
927;47635.044278870075;69177.92191658338;52012.64775175712
928;47635.044278870075;63545.64516932019;51136.36847570981
929;47632.25152819646;75241.34461967301;51415.8051135965
930;47632.25152819646;70933.9455476371;51742.87755372605
931;47632.25152819646;71945.98347812044;52624.95926532878
932;47632.25152819646;78257.33528803005;51942.06657065447
933;47632.25152819646;69763.04748485236;52607.90692871181
934;47632.25152819646;80138.33228635353;52758.95670689282
935;47632.25152819646;73463.76330532128;52290.3143164554
936;47632.25152819646;76666.26790872005;52518.938776023875
937;47632.25152819646;66688.57734901938;52177.24695776181
938;47632.25152819646;76568.5549856316;52699.13886521527
939;47579.670037226846;68108.86723829118;51832.27558372057
940;47579.670037226846;67060.17722236233;51437.29526872478
941;47579.670037226846;67900.30333120389;52198.304474149256
942;47579.670037226846;68752.31534300777;52620.474383994464
943;47579.670037226846;70254.80709337577;52990.52514946177
944;47579.670037226846;68728.0391962953;51907.24416900202
945;47579.670037226846;74638.15581803443;53620.4605261715
946;47579.670037226846;74285.39137762187;52822.7301803762
947;47579.670037226846;68710.14272225431;52742.76946716753
948;47579.670037226846;67055.37391357915;51688.88134125635
949;47579.670037226846;76745.30527951258;52105.776194846585
950;47392.99852165093;68551.81135545392;51943.11862496932
951;47392.99852165093;76655.85678828199;53235.26905850094
952;47392.99852165093;66892.76257558918;52061.6277260967
953;47392.99852165093;77812.35374037911;53051.24839127087
954;47337.87885027145;77270.51290790083;52740.33946594139
955;47337.87885027145;71274.58807701708;53584.62868205822
956;47337.87885027145;79495.38753714944;52345.905073088914
957;47132.01097858553;90871.56397373162;52356.74882712988
958;47132.01097858553;73251.67110571849;53494.03064756951
959;47132.01097858553;68784.17330695302;51856.46383891773
960;47132.01097858553;67031.50843688357;52290.7153362726
961;47119.057300906075;69465.89755122515;52703.04211528244
962;47119.057300906075;67337.87015498085;51366.4900389219
963;47119.057300906075;74689.96950193752;52337.754828757315
964;47119.057300906075;71178.52368373887;52460.28199738654
965;47119.057300906075;74245.58515795106;51587.24586534062
966;47119.057300906075;70442.90328721947;52936.43698485436
967;47119.057300906075;70609.31607816878;51915.70835802895
968;47119.057300906075;76416.89832817965;51973.0738688567
969;47119.057300906075;72806.15853149272;51865.96933685099
970;47119.057300906075;71871.11040382567;50773.27208584773
971;47119.057300906075;78208.19537145294;52941.39573624036
972;47119.057300906075;73018.20482214254;51262.602483119495
973;47119.057300906075;68829.90128271499;51562.69964427494
974;47119.057300906075;68841.34274203586;50798.525934981444
975;47119.057300906075;77774.16091469779;52326.67555081169
976;47119.057300906075;69696.71083142498;52055.93623487413
977;47119.057300906075;74041.75216176249;52558.78553278251
978;47119.057300906075;81264.49455644711;51792.3200980545
979;47119.057300906075;80204.1660880676;52895.71428095173
980;47119.057300906075;71217.02498505588;52303.552487917965
981;47119.057300906075;66190.15655134244;51110.31461637677
982;47075.15339379224;73660.36476515618;52728.31529730895
983;47075.15339379224;71952.79376042633;52294.372787293054
984;47075.15339379224;69859.29390258151;52066.05741453232
985;47075.15339379224;71917.98002191249;52038.55578047087
986;47075.15339379224;74866.91202924309;51921.67465651405
987;47075.15339379224;70825.62970352477;52128.814429671336
988;47058.8695618391;78826.87400320177;52282.73660615209
989;47058.8695618391;75924.70641568291;52370.366118324775
990;47058.8695618391;78368.42336155026;52781.838255331044
991;47058.8695618391;68285.58450850876;51923.850375665446
992;47058.8695618391;70221.66520810686;52026.70748467145
993;47058.8695618391;77364.8868468235;52826.73128464343
994;47058.8695618391;67611.55141725209;51683.72611525156
995;47058.8695618391;74887.30911959884;53000.73814385288
996;47058.8695618391;66320.21116758183;51677.32576726357
997;47058.8695618391;66347.93193630977;51368.05241167578
998;47058.8695618391;80858.78052579884;51291.466343459746
999;47037.27969681841;65830.56443353569;50757.12315045062
1000;47037.27969681841;67683.82526438357;52120.94899891263
