number;the best;the worst;average
1;154409.50122498596;188465.225337413;172118.45814781633
2;147618.72991219698;173427.6219855159;161016.69001379618
3;144098.27957020866;168941.93037972003;155004.61605647436
4;138190.42861689048;166598.13237237642;150800.32738090784
5;138011.1836650622;163556.00507603894;145723.12515427227
6;134302.87280248542;161171.9072551254;143645.33766943702
7;133830.06460891152;160432.0687134805;141445.13216173902
8;132534.42931116634;148383.4077469007;138708.24737473196
9;125707.19155354986;156307.39133857514;137874.84433374566
10;125074.02754274532;147259.66504966945;134909.1108262561
11;120460.23745539841;147596.76951191717;132315.9176685951
12;119966.95406667083;144503.89032252878;129887.42019408707
13;117775.30028086268;145025.01200967713;127764.71004103379
14;115890.48769557757;141175.66097034252;124990.16255562726
15;115890.48769557757;134808.78360321606;122830.12464894495
16;113645.6704998712;140986.61358329278;121135.02836514972
17;112479.07262798156;130079.54944007148;118562.95101756165
18;110695.33303681742;129744.67677351151;117854.45857516199
19;109734.63373922984;128562.67131584292;115227.12484274479
20;107952.25567672387;127398.97894763433;114697.5555879672
21;106307.46356130535;131944.62539648142;113826.72539455735
22;105375.91495511928;129999.62129535168;111879.79248314013
23;104467.0257610687;121908.29087600284;110581.86793269805
24;104318.42303882672;120116.93811487568;110418.47039923324
25;101943.05047623735;122162.33387528105;108640.34450526065
26;101943.05047623735;122362.28772147516;108251.76752402307
27;99890.34075708296;118604.30697284649;107153.49859886219
28;99619.3507785824;117470.12591642077;104984.53136706754
29;99619.3507785824;118205.76845602569;104763.41062240908
30;98787.50807513649;115070.48523660385;104052.69107632288
31;97687.51333849141;118475.2833318943;103449.50585535816
32;97626.61656099696;124372.6090856345;102961.49273628886
33;96768.12048417838;117137.08348538804;102612.77536864443
34;96500.79762185564;113634.31962875833;101932.97608719107
35;95016.90884317832;115194.97704265421;101298.95293687332
36;95016.90884317832;111271.87936592112;100410.6943224868
37;94661.43715176507;113270.22304632471;99626.08459074875
38;94643.2473013772;120885.62284073792;99658.88433003477
39;93994.5903035554;114519.96355257311;99609.66951155907
40;93949.06959457639;117028.95051695385;99480.65981089226
41;93662.93227028183;116734.0287511406;98694.87387058011
42;93101.59211047213;108567.97158497412;98763.60609301858
43;92252.8397948372;113253.8781285739;97714.1661958763
44;91885.61375485027;113016.65167967902;97787.6638049146
45;92204.46072971467;108041.06074726605;96008.65714841218
46;91339.10086764242;118961.00943321842;97201.12651842096
47;90773.33370786034;113766.00002578618;95883.6409463631
48;89536.1574377301;125546.67002663763;95851.66684593236
49;89536.1574377301;118342.26401331098;96609.31347381967
50;88844.72519824377;110589.17600419662;94796.4555988997
51;88630.35864405615;113923.03776280726;94602.56253021998
52;88630.35864405615;117012.64712015349;94541.90696814419
53;86758.40860185483;108029.36255635654;93909.1570871018
54;86758.40860185483;113693.04440129673;93177.91871294127
55;86534.96494626826;113096.77212987217;92480.22295820052
56;86404.6611207827;103263.47251801971;90774.17029631083
57;85614.33160003733;101377.78257218214;90459.35506594283
58;85395.40256308076;107146.38492064274;89228.87724305973
59;83774.78586828033;104008.14719883897;90398.11503054506
60;84828.51669792195;105438.47879867008;88852.18800442215
61;84024.43930737308;106044.447528585;89735.52157276262
62;84242.7405618147;101189.58574678794;88329.41221639146
63;84034.55146407371;103754.66364009697;88242.54664610233
64;83434.0753104774;103114.37848829648;88565.93561752082
65;82939.67204792623;109746.60183584064;87968.22981706742
66;82835.84329282043;98548.15391266125;86873.62134008431
67;81756.64431315556;106485.17466968716;87369.86883623576
68;81672.68778439915;108404.76961459429;88539.71121761622
69;81214.16660349419;108005.29798492673;87335.9278868867
70;80417.89174742138;104943.82374120467;86450.36126853478
71;79816.06996314134;101606.63313102353;86609.10408075333
72;79816.06996314134;102657.60089539981;85209.48555985128
73;79511.36997073228;105356.8809863118;84586.23632713735
74;79511.36997073228;96065.38343226862;83432.41677423111
75;78095.25657221179;98825.12635850573;83146.66238110355
76;78095.25657221179;98197.8458897042;82844.18614000242
77;78095.25657221179;96521.04824800142;83281.14960680148
78;78054.55997512983;101363.75286720408;83397.31591417405
79;77948.29732702649;101707.44851297249;83286.07086787935
80;77538.31880046031;103354.23860968147;82867.76178122433
81;77055.46304933923;100583.82035324087;82638.40117441285
82;76853.78178152059;99290.7474677798;83344.2651880336
83;75630.33612169353;106686.80028018214;82577.00928691642
84;75630.33612169353;94930.0592223648;81761.1925202161
85;75630.33612169353;96146.21100114522;81358.80709129863
86;75374.52106578785;101849.05565439547;80753.15523038624
87;75630.33612169353;99910.57830059911;80205.14218653445
88;75111.98980708583;94133.95230873472;79124.20303717989
89;74972.9293115195;93698.38889960511;79128.6933949656
90;74891.32537233159;95975.19465150198;79736.4920639454
91;74891.32537233159;92618.20708475877;79839.88815143972
92;74891.32537233159;95982.43785346349;79619.08366408071
93;73742.9228091525;98527.61962327131;78463.70456416697
94;73742.9228091525;95214.0974956315;78807.92011339797
95;73158.06146745577;93914.62358949393;78843.85074451345
96;72902.05133059084;89167.52834013046;77024.28850299955
97;72329.39664226111;95333.69890600428;77497.20417213206
98;72329.39664226111;97523.63265278688;77269.97407236256
99;71195.2392336075;96209.769165384;77471.64260466363
100;71193.3409581315;96495.69049083376;76842.94425713972
101;71171.09445998918;109109.91745112532;75852.93495819726
102;71058.90090010426;92994.15105748722;76878.10145012678
103;71080.19724107756;92651.55162020361;75898.7063866361
104;71073.07249988944;98811.71295067997;75750.02129133207
105;70626.59303573432;92474.90244641877;75826.11363398303
106;70561.7772979061;95200.69100699577;73865.20792665349
107;70561.7772979061;93868.43089893338;75279.75790392826
108;70160.4786355111;95417.42642987482;74269.58941990591
109;70115.29783375097;93758.28895247466;74628.79451700638
110;70078.24188263682;93118.5367874719;75104.50610475
111;67677.09593542716;94296.39468372094;76000.82914155436
112;67473.5017213214;94817.31228989117;74148.50171633277
113;67473.5017213214;92551.74017138746;74089.15085376454
114;67408.68061953636;93715.14389239773;73435.55151433396
115;67473.5017213214;87201.23755224777;72161.72123221811
116;67043.88577288731;90519.83491906199;71849.34446879155
117;66593.77345038478;90737.5943350557;72518.36258379433
118;66782.86768005344;95400.01599076224;71961.98158619199
119;66729.25523416275;95060.91890711595;72067.41549279341
120;66729.25523416275;88619.5558854409;72971.67494800579
121;66422.23360652839;92884.51859572444;70677.3444156119
122;66230.49183348722;85716.89668411728;70853.05985914174
123;66230.49183348722;89116.06710879096;71995.45432714702
124;65677.89654520218;86438.6862272954;71238.277088007
125;65677.89654520218;87628.11524797056;70567.66463016775
126;65285.27475380456;85095.60545308478;70608.86612741454
127;65285.27475380456;88449.33905040071;70448.9885361074
128;65285.27475380456;84866.19084071988;69737.74894361124
129;64719.68450445287;84531.75535980065;69069.61406164036
130;64719.68450445287;87381.4708862094;70062.24594800718
131;64719.68450445287;79210.80610486968;68768.26847356225
132;64719.68450445287;93354.4767678651;70037.73301733582
133;64719.68450445287;82269.43935700097;68386.12958416533
134;64628.25488299061;93369.69977934464;69034.66451084436
135;64355.19642203912;87112.75564489177;69780.97948265677
136;64355.19642203912;87483.75271814663;68590.98207441086
137;64355.19642203912;85869.24578570137;69071.23795385165
138;63894.230876545385;89229.96269949827;69455.42807955865
139;63894.230876545385;87655.06977987221;68958.27266585351
140;63890.3551787438;94207.05063137575;68970.14331961548
141;63890.3551787438;87076.02086091698;68491.30255887852
142;63155.46210785377;82290.4124442952;68227.73631892992
143;63155.46210785377;84959.45701310826;68649.35432297569
144;62117.47086558013;93330.11440343737;69250.39665108323
145;61959.13756573818;81648.46210300416;67636.53865388
146;61959.13756573818;86910.63529785047;66735.35616686013
147;61788.665715232666;80235.18210233764;66090.43631099943
148;61648.84066601886;77391.46249871532;65700.49562774863
149;61601.25597853557;103020.45062567737;67232.50249061821
150;61601.25597853557;85331.07298976557;66519.75591310578
151;61601.25597853557;87744.00378355177;66600.1442826574
152;61601.25597853557;82937.8125853711;66040.51109608113
153;61601.25597853557;85135.70682684961;67093.68883894802
154;61275.18063821479;88291.5004142558;66359.17729589384
155;61275.18063821479;92609.49729132224;67390.89300957734
156;61226.33828314862;84252.76133557943;65394.787067703015
157;61226.33828314862;79910.62280077515;65955.47535015554
158;61226.33828314862;79352.20184227593;65481.62013094366
159;61226.33828314862;94716.81813327929;65967.7975306154
160;61114.023131767404;98437.9042183776;66457.25417309349
161;60787.94779144661;81218.44721243795;65735.74702101793
162;60787.94779144661;89915.85559034305;66087.63930572748
163;60787.94779144661;82042.39724933922;65349.83176094434
164;60374.0716096743;86754.87060759313;66569.197531428
165;60374.0716096743;82765.74278159929;65580.75114001801
166;60261.75645829308;85949.37383905199;65026.60040360431
167;60261.75645829308;82695.91855279724;64442.14503777577
168;59977.329358059345;85335.46094902379;64610.27309974996
169;59947.85196517738;88274.42052747672;65370.128952144674
170;59947.85196517738;90151.58030324853;65969.85308041595
171;59947.85196517738;81397.56305142476;64047.1304666756
172;59872.56400719524;82357.68243896958;65499.65561091653
173;59872.56400719524;83807.40959564863;64509.69222856277
174;59729.700054753645;87157.59809747555;64529.265914572694
175;59673.28681845413;83416.80933836661;64748.311279028545
176;59673.28681845413;82949.14468194025;63955.971461160036
177;59673.28681845413;87199.96541375197;65639.08305248803
178;59673.28681845413;84764.28029645974;63751.22088118216
179;59673.28681845413;83716.85282076451;65258.67668154208
180;59618.16714707465;78482.25726420638;64311.90539899731
181;59206.93665918778;86405.35645326928;63965.89868660131
182;59206.93665918778;83383.96510365493;64379.73986025553
183;59206.93665918778;80003.74073864466;63816.63377234254
184;59206.93665918778;79266.14169446626;64473.7315331762
185;59206.93665918778;94440.05580007727;64680.6942267481
186;58746.95156783823;87795.12626888207;63920.32629787689
187;58746.95156783823;81908.3613196168;64355.92608335559
188;58746.95156783823;83140.38197258052;63045.21661551034
189;58746.95156783823;77499.2724900287;62947.95360012438
190;58704.31486921683;78173.3982265161;62888.24752495202
191;58563.88738516925;81740.13850577956;62704.82974060075
192;58452.67766499192;81691.16180076548;63028.52296340824
193;58563.88738516925;89195.14890992349;63901.55456616031
194;58563.88738516925;87682.16720965762;63971.948229873014
195;58521.58567898923;79098.03271937805;64196.965507949346
196;58563.88738516925;88470.81404587952;64087.05072889627
197;58563.88738516925;83169.381684314;63964.03098880303
198;58175.46452415649;90193.17909469349;63691.65626678207
199;58175.46452415649;81660.82417367624;63604.341529574915
200;58175.46452415649;81045.78711608653;64175.97748805935
201;58175.46452415649;97133.10468280222;62503.64203408092
202;57973.890358102704;84941.5724618842;62348.19010757041
203;57873.94909508781;76311.70624719067;61474.30315829937
204;57873.94909508781;83500.05771042508;62904.97816839351
205;57873.94909508781;87022.06009258158;63836.364001039314
206;57834.112206420126;80942.31846132161;63227.26385747748
207;57689.91854492374;79169.15871841648;62957.18322560747
208;57505.22313072655;80193.87627244765;63243.401745611365
209;57528.136404960154;77963.74856589193;62225.24339809457
210;57494.11704226305;85405.39273655346;63649.22731653318
211;57027.4944468237;77496.66146602234;61658.50444776131
212;57167.936259908754;90161.98536034649;62854.8183783313
213;57133.91689721166;78706.31842175875;62378.48833529385
214;57085.292878465996;74609.71747199928;62153.461372636404
215;57085.292878465996;79711.32965947407;62833.93829709304
216;57085.292878465996;81893.73748284676;62836.515542278066
217;57085.292878465996;82235.06168478772;62204.035275876886
218;56837.696914009335;78422.54037505161;61771.15865721305
219;56762.51475553678;75222.21379915235;61819.25488232732
220;56762.51475553678;85568.88703862653;62464.118034262065
221;56762.51475553678;77595.5147235009;62377.248093568516
222;56762.51475553678;87872.46616944768;62313.427013159904
223;56762.51475553678;83246.88674614046;61992.54029698294
224;56658.550861918055;79738.21014258682;61911.43587523229
225;56423.02505628394;78805.36202725601;60623.43141270768
226;56534.26293597321;79928.88623381635;61221.78526815722
227;56658.550861918055;79837.48803824934;61024.87101391633
228;56637.04431927815;73702.2058102937;62271.73067405117
229;56658.550861918055;87751.90083927175;62216.96948068615
230;56629.58488828685;85373.07232503901;61634.436507326616
231;56275.17803765086;85182.08278047066;60550.465185290064
232;56275.17803765086;98236.54165019639;61853.94591082554
233;56275.17803765086;77298.71211933554;60907.11125936047
234;56275.17803765086;84544.73673272246;61328.63858586247
235;56275.17803765086;80467.73997409605;60588.01008542015
236;56180.97266962367;77802.61906939541;59739.518520206955
237;56205.462208266785;77159.17858504369;60816.897341972486
238;56205.462208266785;79998.00001088849;60315.38088895597
239;56205.462208266785;87689.01592576502;60112.94637134502
240;56034.62982433364;80827.03183468664;60378.94182072868
241;56034.62982433364;76991.65818117157;60164.798474231844
242;56003.58892239587;79859.3118588957;60370.59175854022
243;56003.58892239587;81064.20316131515;60733.75757640767
244;56003.58892239587;79340.27102067131;60575.19906806389
245;55866.636746913;81101.07993881917;60252.592141969784
246;55866.636746913;74184.80228810871;60329.48581080738
247;55866.636746913;77059.75499764987;59720.36066897733
248;55866.636746913;77357.10622986082;60789.281637449276
249;55866.636746913;78956.45941709625;61441.58496087326
250;55866.636746913;79790.7969471478;60473.476932311205
251;55752.34459627144;78934.80126424979;60406.32473928757
252;55752.34459627144;89801.91346531307;60487.35358951882
253;55402.67430565371;85114.98800568756;60115.16691580673
254;55402.67430565371;79273.35956632378;59492.3972263525
255;55402.67430565371;79236.43132759076;59636.27410274903
256;55402.67430565371;76561.14841537148;59981.75835016636
257;55329.38226407137;83360.81032207514;60284.90682393249
258;55329.38226407137;74551.74699360561;59744.315706460824
259;55258.37122837003;75218.48410681845;60802.18925889897
260;55145.627269082965;77156.19340512682;59947.95614375114
261;55145.627269082965;83067.39860896424;60664.093937227444
262;55145.627269082965;74982.06149843041;59880.89797477325
263;55145.627269082965;81662.75724711845;61591.17861703258
264;54715.74357570296;75488.77716776304;59835.20289751425
265;54715.74357570296;77422.15268140286;60449.483889514835
266;54715.74357570296;77551.97318183268;60122.00829679575
267;54715.74357570296;79310.23861052179;60020.59741238189
268;54715.74357570296;78742.55472570693;59569.20611349134
269;54627.96095591018;74027.04607501348;59575.35892341982
270;54627.96095591018;78667.67786946193;59717.765316242556
271;54609.44690938882;88223.40475885496;59616.6031035844
272;54609.44690938882;78321.83004841064;59827.66913269557
273;54425.24783275587;76995.27231934028;60284.848648431136
274;54425.24783275587;76776.87176607324;60330.662803819396
275;54425.24783275587;74074.1345099501;59334.311645845686
276;54328.01252745436;86676.424503195;59791.00386110165
277;54328.01252745436;80439.00586116716;58524.81406396144
278;54328.01252745436;78595.1675299656;58732.19236778182
279;54139.26513336492;80777.40596651049;60298.152990455
280;54237.79393331537;84194.01250080009;58922.20367286139
281;54237.79393331537;76576.49641403167;57993.40869750741
282;54237.79393331537;70236.11845329253;58763.05495904416
283;54237.79393331537;81366.31568837301;58330.46864713559
284;54171.76414196427;73076.86270717824;58730.79636987186
285;54171.76414196427;77826.65237804911;59472.1896246241
286;54171.76414196427;75489.88215489776;59216.13756320957
287;54128.4153248734;77605.49765815711;58348.926901211635
288;53975.032585623725;81100.20450604775;59276.76362219423
289;53962.4055083153;80434.8772872379;58502.5089125325
290;53962.4055083153;79152.86393603553;59371.582909362616
291;53962.4055083153;77147.94681169649;59042.169581393486
292;53893.400037544045;81856.8463834704;60090.26426182495
293;53702.35802009496;75396.35108168636;58385.68732825311
294;53702.35802009496;85005.8561062087;58552.0354084505
295;53702.35802009496;81538.9646477913;58470.258277088105
296;53702.35802009496;73837.5409624101;59553.85166512115
297;53702.35802009496;76096.82997336473;57853.38561422278
298;53702.35802009496;76577.11131485974;58663.62415072675
299;53300.839398856864;74723.1396702636;58207.59824903688
300;53300.839398856864;72919.1993405181;57637.25892179117
301;53300.839398856864;82451.04611917073;57634.48866198387
302;53231.20252638487;77079.95041794228;58164.991763546735
303;53158.27130748943;77355.79051224572;57588.45502419697
304;53158.27130748943;77782.46398789909;57833.067040322625
305;52795.211688142546;78424.98727320864;58859.45724724477
306;52795.211688142546;78379.23475305464;58429.744211445606
307;52795.211688142546;75495.45329776597;58557.56535104609
308;52795.211688142546;85794.14696731149;58214.83120877911
309;52795.211688142546;78798.9443358128;58796.72689632028
310;52795.211688142546;76990.70725212495;57559.460531546545
311;52703.93743985759;88396.58485827252;57179.6782352882
312;52703.93743985759;88218.68575632019;57110.27425440996
313;52703.93743985759;77263.21331585292;57775.04548390675
314;52493.25331955108;75910.81506503253;57072.91719862061
315;52493.25331955108;75611.97098765441;57040.83844217326
316;52681.51061678619;80835.61339918584;57642.75375278014
317;52681.51061678619;77984.96836909297;55847.6308873532
318;52681.51061678619;76845.29755504518;58112.44176094679
319;52266.99964415224;71136.65790625654;57334.3929330971
320;52266.99964415224;78743.08409120784;57529.67911527256
321;52266.99964415224;68109.90515721255;56160.72771938716
322;52105.742254522556;77298.05739821127;58103.21987270415
323;52105.742254522556;75758.24694633394;58394.393780326674
324;52105.742254522556;76279.32853013245;57244.48472282154
325;51887.90078129464;80611.71239308828;58018.47319814094
326;51726.643391664955;76180.42576797854;57864.32701729028
327;51726.643391664955;77399.61476233538;57296.08558061572
328;51726.643391664955;72522.56856738385;55402.497277931536
329;51695.64884268674;76840.46424354125;57091.124424802714
330;51497.940710412244;78772.35748883813;56600.37555877632
331;51229.88817362247;82826.5071132708;57174.05222693229
332;51229.88817362247;85589.04804468798;57491.42548336372
333;51229.88817362247;74045.42213365436;56478.00230280647
334;51229.88817362247;89495.11681681953;56852.24455102473
335;51106.92066385725;85578.20095316906;57229.99566006674
336;51106.92066385725;68441.43613203744;56037.74453855362
337;51106.92066385725;69837.1073983762;55404.145973803315
338;51106.92066385725;82628.85884284475;57010.984520013735
339;51106.92066385725;79588.99878298865;56173.53522919745
340;51023.60712449865;69803.45744020013;55300.22119361585
341;51023.60712449865;70789.8878886648;55501.05527167215
342;51023.60712449865;76352.38680061162;56380.53541008384
343;51023.60712449865;66061.41785697317;54705.78516505157
344;51012.00707395583;74351.03901332023;56605.964488341895
345;51012.00707395583;70405.19130527097;55697.25232171339
346;51012.00707395583;74995.05086733052;56055.77667542583
347;50823.99525936204;72013.79118743939;55966.485399235484
348;50823.99525936204;77961.32524455966;55673.73675465383
349;50802.64954548956;76579.24764138646;56537.67151608266
350;50310.77546748018;72166.10506713604;56175.5929630491
351;50310.77546748018;66987.46559044122;54694.40576842271
352;49453.188801625365;76987.4153036864;56932.81362321973
353;49453.188801625365;80039.73981459478;56987.70046193857
354;49453.188801625365;73513.24847881409;56339.77616341185
355;49431.84308775289;78349.77012133326;54542.323889642634
356;49431.84308775289;86340.99809184417;55160.48637734539
357;49413.329041231525;74140.06160323595;54586.50026670597
358;49413.329041231525;70422.28853494117;54629.3880464296
359;49402.929660789785;92451.55182045036;54126.65220146723
360;49402.929660789785;75687.04573170531;54927.16859853073
361;49157.2069398021;79865.8776535242;54333.52691595829
362;49157.2069398021;76397.85741188405;54789.23513206712
363;49157.2069398021;75191.4176150234;54654.366430175236
364;49157.2069398021;71890.04864403734;54218.0500120176
365;49157.2069398021;78376.44629764394;53876.94174241715
366;49157.2069398021;69068.98397399143;54292.36567541541
367;49141.73154701003;76688.84091175758;53451.01425772584
368;49141.73154701003;71265.92764857625;54393.13176030183
369;49141.73154701003;77555.76381861513;53723.91819911162
370;49141.73154701003;69683.236838084;54383.42528804861
371;49141.73154701003;71797.8107281683;53293.11104411827
372;49061.75707843233;70249.44094699304;53296.26816279848
373;49061.75707843233;71709.90810382194;53249.40576334797
374;49009.69937343254;67629.76287194356;53348.68798889613
375;49009.69937343254;75700.25487612095;53216.759179915156
376;49009.69937343254;77562.80611521204;54832.92744750578
377;49009.69937343254;73199.36675550754;54249.70689275682
378;49009.69937343254;83861.36436728844;53701.78140558536
379;48484.7599987108;83074.38242382927;55637.20080004711
380;48484.7599987108;69814.72734177097;53037.64845477959
381;48484.7599987108;75994.34787291501;54389.744958832554
382;48484.7599987108;65981.63988972391;53390.09070642341
383;48484.7599987108;70443.29950485996;52502.043560449456
384;48296.189918139746;73614.27924854099;52794.590503200256
385;48296.189918139746;76225.74727346248;52564.774111665225
386;48296.189918139746;69390.5034291046;52719.94926202651
387;48296.189918139746;73302.44070338532;53128.70737652823
388;48243.57508905176;69516.83887504645;52985.03493166393
389;48203.65638723431;74643.07267716715;52968.86817967119
390;48243.57508905176;73236.46482697467;53200.24377606805
391;48201.32583136121;77922.49183229642;53343.17573508013
392;48201.32583136121;75283.78417664318;52794.38948252254
393;48201.32583136121;68717.71576524612;52645.113918888106
394;48201.32583136121;69531.1724753132;53141.202299379656
395;48196.46558113035;73398.80017610012;54188.91888254619
396;48143.51544759214;73243.08600030323;53506.189767119744
397;48109.030342368234;72867.72845801403;51789.28570623196
398;48109.030342368234;72871.72785802663;52577.68234496664
399;48136.03784917909;67479.28349036627;53113.736824247666
400;48126.77865487001;74335.6526870728;53637.68179667814
401;48126.77865487001;68050.14628380189;52435.89012978628
402;48040.28399400927;74713.89175381087;53646.82612227737
403;48040.28399400927;76829.01614979602;52511.48395565006
404;47978.511193814746;69352.36560076865;52520.045556081815
405;47978.511193814746;75477.51368655899;52848.70745887009
406;47978.511193814746;71146.884155015;52356.73159398502
407;47978.511193814746;74751.46401576046;52661.567048497636
408;47978.511193814746;76578.79422442862;53345.425116011116
409;47840.878994112005;84190.69645499252;54170.06000617883
410;47840.878994112005;69744.46900263608;52295.21572715125
411;47840.878994112005;72145.67213711842;52868.242390881765
412;47869.07811791004;88824.38157817959;53195.197998712974
413;47869.07811791004;71091.83515534157;52720.69438660089
414;47857.33453035617;69634.9807798767;52438.83570911974
415;47441.92192997168;70807.79254158487;52773.3525308479
416;47441.92192997168;68791.69358181648;53023.530737505884
417;47441.92192997168;77082.98991977189;53161.70275062021
418;47441.92192997168;73631.43545244694;52436.07569750338
419;47441.92192997168;78687.8945421308;53362.94176215552
420;47441.92192997168;79391.70292039207;53073.072294402526
421;47441.92192997168;69564.24139213281;51791.86601785803
422;47361.24025697547;65547.09262076132;52105.72760173113
423;47320.1867293229;75464.73925987213;52910.640927846136
424;47320.1867293229;92977.32229745586;53502.00743378741
425;47320.1867293229;75195.44916581175;52493.89496166035
426;47320.1867293229;73476.18573713582;53017.321039984134
427;47320.1867293229;73257.76747764873;51976.97014257199
428;47320.1867293229;69630.8938542529;51737.3736398886
429;47000.756099971135;71080.31098931303;53116.15901996705
430;47000.756099971135;70834.29963349893;51442.59972671476
431;47320.1867293229;71505.02051699087;52410.797802914436
432;47320.1867293229;82696.79960455163;53610.29714587881
433;47320.1867293229;68999.79845326976;52551.4178061918
434;47133.672990175844;67321.54403265336;51244.456589328795
435;47133.672990175844;70126.40105805895;53571.487232167485
436;47133.672990175844;75037.44115799414;50497.454256821045
437;46989.62285333908;67013.19127159317;51989.88383355718
438;46989.62285333908;72871.77179421671;51244.91093212843
439;46989.62285333908;81880.23017789914;52287.06512201078
440;46989.62285333908;69318.78097588294;51345.065370392615
441;46989.62285333908;75327.58937992882;51543.228759712176
442;46989.62285333908;68559.15051324699;51252.14983466937
443;46989.62285333908;79612.60985351224;51759.280282637366
444;46989.62285333908;64561.13227405159;50961.922296352226
445;46989.62285333908;71343.85950009161;51284.520442052046
446;46989.62285333908;76862.14367670535;52505.97239621317
447;46743.088490683185;71540.2385272624;52245.48036350439
448;46743.088490683185;72096.73528542537;51507.05239330588
449;46743.088490683185;83275.36588779077;51832.8871159391
450;46685.15963529288;73370.66911522529;51760.82796935757
451;46685.15963529288;78520.91140912667;52014.61812477206
452;46685.15963529288;75520.59808117963;52846.68519619636
453;46685.15963529288;71369.55131374495;52656.60920608838
454;46685.15963529288;63233.671899682355;51432.57355786751
455;46685.15963529288;68067.94468507607;51935.52729354415
456;46685.15963529288;69688.23530247304;52404.383522666525
457;46685.15963529288;69978.48777817111;51937.200641650066
458;46685.15963529288;70311.2093819333;52086.64099501
459;46685.15963529288;72133.48756125683;51674.54993215219
460;46685.15963529288;81208.40676543445;51516.18064830755
461;46685.15963529288;72857.6495482273;50895.755486841634
462;46685.15963529288;77479.95784225802;52015.65155464771
463;46670.74163958532;83787.620927399;51677.99812313718
464;46670.74163958532;73167.996504427;51894.511094633046
465;46670.74163958532;72850.48235229988;51799.35434436253
466;46365.729005941124;72590.48168292177;51761.57200048117
467;46361.687957189264;66832.66768689382;51611.951134073846
468;46361.687957189264;71279.27186470824;52089.7582350242
469;46361.687957189264;75728.05305562129;51818.58557345602
470;46220.804240665886;74996.97087031679;50929.5282366288
471;46220.804240665886;81117.94929533018;51033.54669177342
472;46220.804240665886;81982.99204989363;52232.838306362515
473;46220.804240665886;69106.34338845151;50891.8284272318
474;46053.72506089592;69009.61449103257;51445.11017062535
475;46053.72506089592;69896.97648608054;50941.8071812992
476;45691.014795028794;75239.246044871;51731.71989124315
477;45691.014795028794;78344.604768377;51326.79795461217
478;45691.014795028794;68026.21149839947;51284.642693589914
479;45691.014795028794;73458.2770633529;50802.52038741644
480;45691.014795028794;70235.61237237573;50760.41132927283
481;45443.96643392615;69440.44249784134;50583.09067243621
482;45691.014795028794;65473.62782958932;50467.91560751985
483;45691.014795028794;67563.6303723568;49701.5290895919
484;45553.82161350543;82888.75527180207;51355.52713687664
485;45553.82161350543;65531.61931923086;49930.86864836847
486;45553.82161350543;82633.47863751125;51661.323394495426
487;45448.5816654442;70420.12379402296;50816.94773967483
488;45553.82161350543;70541.59764313916;50696.34361827767
489;45548.03485481849;89903.4963769488;50618.20241299318
490;45539.99423413468;77683.3955525796;50747.4767448543
491;45539.99423413468;70248.84751620908;50278.98450352615
492;45534.20747544774;67103.70436348286;49570.95243515683
493;45416.619471980746;67537.86258754;51059.41849897129
494;45534.20747544774;69408.43599494659;50398.1228967348
495;45534.20747544774;63938.764661210975;50857.76405477947
496;45534.20747544774;78970.69071088472;50282.95063015677
497;45534.20747544774;67092.7228164143;49525.42650714643
498;45534.20747544774;71572.93615492589;50199.21904974322
499;45534.20747544774;69087.64443406604;50092.72891343418
500;45534.20747544774;67319.3201767739;50724.83445883402
501;45498.95675484997;72776.03101509104;50868.77962691476
502;45498.95675484997;78262.13472951204;50689.624532036396
503;45498.95675484997;75699.85804751415;50647.06966124822
504;45498.95675484997;79458.88182531485;49813.35094830589
505;45498.95675484997;73354.71544090248;50124.064746705015
506;45498.95675484997;62500.23822539798;49465.676336956574
507;45498.95675484997;62759.102098709955;50068.48672555848
508;45498.95675484997;73946.18644510295;50737.84361191373
509;45498.95675484997;63912.286199720016;50770.61186907421
510;45498.95675484997;74174.27078165348;51146.118946395654
511;45498.95675484997;69537.0389729388;50715.21052512336
512;45498.95675484997;71670.09499222923;49547.767561231565
513;45498.95675484997;66700.47977146244;50284.512280526906
514;45498.95675484997;75806.82713493651;50274.369966534905
515;45498.95675484997;66776.6012299735;50477.63672048422
516;45498.95675484997;67973.95814404784;51992.890711965665
517;45498.95675484997;73550.67123731357;51546.588539594355
518;45498.95675484997;71336.96240846372;51506.82832276119
519;45498.95675484997;68993.67490133201;50609.85381213764
520;45358.56046976523;71953.39483472309;49399.375303393936
521;45358.56046976523;67108.0017917243;50180.94517539704
522;45358.56046976523;77842.63927313573;51038.73937786724
523;45358.56046976523;62439.81735026622;49106.7885614308
524;45274.35381388653;72943.2534992388;49673.83777366265
525;45274.35381388653;79485.14664664242;51781.52384447772
526;45274.35381388653;76242.42282893434;51111.87088408064
527;45274.35381388653;68806.71002269218;50390.70539480025
528;45274.35381388653;74789.5025822922;51525.862203769386
529;45274.35381388653;88043.16160241253;51431.00502327403
530;45274.35381388653;66663.85952637721;49524.214114486036
531;45274.35381388653;70939.17047806893;50154.24169760864
532;45274.35381388653;67907.98305796298;50535.22816854436
533;45227.13722171789;77530.6422289076;49892.016370163394
534;45066.78930785334;73435.57198838852;51672.5640267524
535;45066.78930785334;67637.15365750554;50212.98880027507
536;45066.78930785334;70488.33019791571;50531.87090334608
537;45066.78930785334;75506.81306895694;51710.417983849424
538;45019.57271568469;69055.44178506354;49506.208530699696
539;45019.57271568469;75516.09840336994;50167.958131263644
540;45019.57271568469;65110.35595278853;49252.05605307958
541;45019.57271568469;71469.80668444619;51483.22814733863
542;45019.57271568469;66146.71953830587;50692.78933165248
543;45019.57271568469;67032.24141863358;50014.761170725935
544;45019.57271568469;68897.23308693197;50749.88022627002
545;45019.57271568469;67703.84239430443;51046.47831450024
546;45019.57271568469;64694.21260668224;49158.874916005734
547;45019.57271568469;65222.23321285908;49644.223884233565
548;45019.57271568469;72048.1576684571;49622.10470225611
549;45019.57271568469;67612.69955073066;50400.62796049608
550;45019.57271568469;75478.08862470748;51003.1514832292
551;44978.343538197936;76360.77597225812;50762.265833449856
552;44914.332767623455;63786.58879569947;48865.24169955895
553;44841.02580285631;76379.92851540628;49885.66546861722
554;44841.02580285631;74037.15984124024;51073.96964119303
555;44841.02580285631;71360.90791968406;50308.67728655852
556;44841.02580285631;76177.08190378573;50928.40151697084
557;44777.61133080878;70905.31018644897;50458.35720398208
558;44760.08235567795;72342.34546834536;49484.08534082075
559;44777.61133080878;69039.53060497166;49329.41484788088
560;44760.08235567795;73109.86873235602;50305.34411896894
561;44760.08235567795;69468.30886945441;49869.54359717441
562;44760.08235567795;74213.4174130001;50026.60437120893
563;44760.08235567795;72395.78663681902;50551.74802721624
564;44760.08235567795;73070.34537882138;49263.12257623776
565;44760.08235567795;68482.45774584681;49819.44067666092
566;44580.07245174435;63384.74765337522;49759.21438558678
567;44580.07245174435;71486.1734726394;50985.52196519861
568;44580.07245174435;90529.48508210445;50228.08008430164
569;44580.07245174435;72403.65536414119;50293.53743361435
570;44580.07245174435;68094.11459554665;49647.34710189596
571;44580.07245174435;69138.92851370321;49470.50102919391
572;44580.07245174435;73613.2200832333;50331.57701048186
573;44580.07245174435;67241.20680819733;49886.825154105034
574;44377.9440058741;69719.77827921386;50523.94349344907
575;44377.9440058741;60610.84005811637;49087.940790894245
576;44377.9440058741;66482.7122107237;50093.396147563035
577;44377.9440058741;65300.17499481926;49876.69177426235
578;44377.9440058741;64432.300842664605;49339.55579339117
579;44377.9440058741;69232.87201877063;49501.14583635207
580;44377.9440058741;68263.09868185414;49763.1644328604
581;44377.9440058741;72079.18344720457;49320.167624728754
582;44377.9440058741;67038.07130602155;49276.520027163504
583;44377.9440058741;74163.51417291096;48999.98961169017
584;44376.538474932204;71792.82591074117;49412.81449086087
585;44376.538474932204;75859.79786679398;49861.894691928166
586;44377.9440058741;70666.9443494454;50510.12779490049
587;44377.9440058741;77672.18654368672;50455.95105250357
588;44377.9440058741;75140.59898779806;49811.77193703458
589;44377.9440058741;64865.09414472071;49308.74343574376
590;44377.9440058741;75802.79059532125;49689.79679390263
591;44346.814869685564;67727.38732189724;49418.80768470045
592;44346.814869685564;70212.23873437042;48907.072574827485
593;44346.814869685564;77287.77875652077;48751.789208807226
594;44346.814869685564;68078.96224055733;49698.05995578335
595;44346.814869685564;63755.96960268607;49115.124052190884
596;44346.814869685564;67580.59387531091;49785.909134975744
597;44346.814869685564;66856.12797693169;49576.37692988787
598;44346.814869685564;66337.54695680182;50408.38857402201
599;44346.814869685564;75071.47669649209;50179.32979489327
600;44346.814869685564;67042.03361710151;49427.16107494014
601;44346.814869685564;62618.68300175327;48262.261248735944
602;44346.814869685564;61605.653871614915;48252.82380849622
603;44346.814869685564;65797.05944839983;49625.10203833747
604;44346.814869685564;68496.56016232629;48866.59273868205
605;44346.814869685564;67304.76507233953;49945.75951707503
606;44346.814869685564;65253.726280537805;50028.71852984019
607;44346.814869685564;68520.01169199975;49263.842028722036
608;44346.814869685564;71375.96719573061;49861.36926288979
609;44346.814869685564;61020.96912829437;48987.67725338468
610;44346.814869685564;72977.62280715501;49712.86252455363
611;44346.814869685564;63206.40593658781;48755.615643557496
612;44346.814869685564;65910.49706062568;48405.93808118647
613;44346.814869685564;68993.89478049161;49063.671616404674
614;44346.814869685564;77175.23574851049;49718.62080263197
615;44346.814869685564;70475.16373566492;50265.91210359651
616;44346.814869685564;69786.83720465083;49081.901712235536
617;44346.814869685564;71198.20205793512;49728.78059360146
618;44346.814869685564;67115.80264089406;48827.96918117553
619;44220.54450011401;78030.12956999864;49675.159518624416
620;44220.54450011401;69996.60926826019;49566.84539339363
621;44220.54450011401;73529.23716337411;49323.4005320302
622;44220.54450011401;73973.2050892116;50208.56908535389
623;44220.54450011401;70000.08212207918;49110.8530406087
624;44220.54450011401;70058.05449453353;49817.13807238618
625;44220.54450011401;72017.61832548941;50076.30475977927
626;44220.54450011401;74689.13036176689;49862.63477322404
627;44220.54450011401;68328.53517881266;49250.06257779467
628;44220.54450011401;78570.78076860437;49222.42618128869
629;44220.54450011401;74542.46368926161;48895.16494199234
630;44220.54450011401;68215.92052743747;49079.47024490641
631;44220.54450011401;71990.27129955853;48078.94806119959
632;44220.54450011401;68638.54422596;48844.32427024199
633;44220.54450011401;66610.03759832906;48187.10052177426
634;44220.54450011401;68096.3311904252;49655.62631428735
635;44220.54450011401;68565.79372493664;49514.55475573527
636;44220.54450011401;70534.25411944912;48497.687403084456
637;44220.54450011401;79335.12040667751;49266.13002095032
638;44220.54450011401;75204.8956621467;48932.55642940762
639;44220.54450011401;71731.36546121442;49078.5571297586
640;44220.54450011401;72002.62498179088;49751.13943211901
641;44220.54450011401;69709.7023872798;49961.11686526874
642;44220.54450011401;65105.31671172036;48498.933554582225
643;44220.54450011401;68521.55632704769;49061.60932117128
644;44220.54450011401;70321.13680156921;49864.25712421133
645;44220.54450011401;73210.44326334752;49515.27453542716
646;44220.54450011401;68102.00099552264;48030.220006708994
647;44220.54450011401;83494.12071804804;50067.70760535732
648;44179.47926541025;75581.86360115449;49049.174520052504
649;44179.47926541025;68060.85488136417;49043.03632874284
650;44179.47926541025;70719.31655285877;49651.89235161259
651;44179.47926541025;66371.21937741875;48666.710518220476
652;44179.47926541025;64171.97536849019;48646.05756607127
653;44179.47926541025;67741.3808931442;48782.45370230263
654;44179.47926541025;62303.58010985289;48600.89409669335
655;44179.47926541025;65791.8688202888;49637.256290281664
656;44179.47926541025;68324.71598373874;50321.90997435572
657;44179.47926541025;71901.90376457728;48843.19417868506
658;44179.47926541025;65199.029662425935;49155.83862140598
659;44179.47926541025;69524.75323025115;48567.34266778271
660;44179.47926541025;66335.38087638351;48362.03162170608
661;44179.47926541025;70738.23508484151;49007.47385802101
662;44139.2565485347;73433.99041099263;48496.95762345009
663;44139.2565485347;66594.22090985179;48524.03789383475
664;44139.2565485347;70571.25291047462;49017.772253934854
665;44139.2565485347;75660.54851310175;49549.03386166984
666;44139.2565485347;72081.78953591955;49980.84087936248
667;44139.2565485347;66332.06327548246;49607.76893612447
668;44139.2565485347;63785.52372725592;48352.97169850547
669;44139.2565485347;80169.59889041744;49578.5223545616
670;44139.2565485347;70446.1588638148;48180.2559612375
671;44139.2565485347;74466.37436167074;49103.47827832536
672;44139.2565485347;63611.295201581306;48463.96977256565
673;44139.2565485347;72661.69471776189;48286.286237280714
674;44139.2565485347;73575.03401086091;49394.16817413689
675;44139.2565485347;72613.10156697607;49284.66398586126
676;44139.2565485347;73438.78414781165;49011.088698680185
677;44139.2565485347;68533.35332431829;49379.999289008985
678;44139.2565485347;68804.14568175033;48986.156114575046
679;44139.2565485347;70060.9205002074;48664.611195177036
680;44139.2565485347;67464.4837045875;48168.90470688527
681;44139.2565485347;71627.33807707619;48554.89288876904
682;44139.2565485347;68244.35567924671;48928.77909772748
683;44082.293081529766;69252.00463333442;48573.067002253534
684;44082.293081529766;89647.80283547084;49406.90348574033
685;44082.293081529766;65725.14827553064;48710.78911013489
686;44082.293081529766;62331.25931501245;48121.55406613942
687;44082.293081529766;65728.51147588064;48677.896152923495
688;44082.293081529766;66171.19333840554;49507.844372676685
689;44082.293081529766;72832.06192285159;48552.69088661814
690;44082.293081529766;71346.95323516292;48906.0520861712
691;44082.293081529766;65199.07477330911;48486.77139568231
692;44082.293081529766;70479.51931403646;49484.46460286322
693;44082.293081529766;80941.18925187265;49788.534772935
694;44082.293081529766;63422.78615824077;47995.35126970764
695;44082.293081529766;79514.3817742479;47862.08271758249
696;44040.09208298765;73418.44643972302;49304.56429877775
697;44040.09208298765;75389.10303872675;50124.49677776564
698;44040.09208298765;74018.96890021133;49132.78875705526
699;44040.09208298765;64934.77124130608;48473.77711627409
700;44040.09208298765;82946.67329887772;49064.763909054425
701;44040.09208298765;72433.83090501586;49069.75375990648
702;44040.09208298765;70624.83070072444;49164.085891209266
703;44040.09208298765;66956.18675703458;48950.42303933213
704;44040.09208298765;71537.35736901028;49685.09457554744
705;44040.09208298765;71461.75594114307;49388.904826438826
706;44040.09208298765;69362.28922016836;48769.470797959555
707;44040.09208298765;65644.0207950846;48387.76563176309
708;44040.09208298765;66204.43096729474;49307.55048185078
709;44040.09208298765;83706.7290982076;50363.11754570116
710;44040.09208298765;78795.76749181355;49171.35183342278
711;44040.09208298765;68789.5129575942;48391.73666864325
712;44040.09208298765;65600.82155269649;49122.32120496457
713;44040.09208298765;67327.71536775303;47629.196882757715
714;44040.09208298765;71345.45582071366;50347.629623460125
715;44040.09208298765;76817.86609923115;48614.573211105446
716;44040.09208298765;64149.39388156497;49044.64898471601
717;44040.09208298765;76584.84690074237;49507.74607804035
718;44014.07871664238;62723.34524667993;48878.023408053035
719;43845.16003567969;74854.32902374113;50457.12793518922
720;43845.16003567969;71349.34111104139;49301.85611087237
721;43845.16003567969;69119.8148439291;49278.74254927501
722;43845.16003567969;67585.82389284401;49475.418148861434
723;43845.16003567969;67860.66208176997;49640.73383779388
724;43641.14319963345;75440.70308982137;48895.187049315966
725;43641.14319963345;69229.20365966111;48978.31434756439
726;43641.14319963345;68762.18685391864;48499.36067236666
727;43641.14319963345;65399.98820388064;49365.29881765751
728;43641.14319963345;69972.21225965422;48901.40477289722
729;43641.14319963345;64871.62600244397;48429.0884019158
730;43641.14319963345;75238.5671870413;47301.229845395224
731;43641.14319963345;68232.37274126854;48791.32514853056
732;43641.14319963345;75563.55044495291;49240.77864940022
733;43641.14319963345;75024.62161310141;48285.44914560054
734;43641.14319963345;62356.77109107835;47785.99272891147
735;43641.14319963345;60713.702848239576;47288.5807075288
736;43641.14319963345;67813.70576154151;48324.154739786645
737;43641.14319963345;66613.51086026804;49110.85963225998
738;43641.14319963345;64548.90771854424;48942.11583660396
739;43641.14319963345;65590.69781360848;49316.802335213026
740;43641.14319963345;74130.73050582515;48828.726515978145
741;43641.14319963345;70097.033352326;49625.420892167174
742;43641.14319963345;70970.66206383177;48505.58502228912
743;43641.14319963345;68375.83710575418;48888.16104042547
744;43641.14319963345;77113.63540237313;48452.713035521636
745;43641.14319963345;71384.34370745221;48117.38893632365
746;43641.14319963345;68158.13795864525;48449.91280246673
747;43641.14319963345;69720.98585893218;49133.70572334964
748;43641.14319963345;70308.01014267911;49951.79699101768
749;43617.00487757931;67425.69298490329;48285.22486390118
750;43617.00487757931;67907.49766092912;47843.66158750262
751;43617.00487757931;72150.72358311141;49682.91483597903
752;43617.00487757931;75991.3829211167;48712.30093201729
753;43617.00487757931;72131.94057337982;49623.70586069606
754;43617.00487757931;75690.34416780631;48594.4902164688
755;43617.00487757931;68413.2752584121;48873.693878649465
756;43617.00487757931;70397.72883993936;48660.57905654377
757;43617.00487757931;66732.40220002965;48339.96156434598
758;43617.00487757931;63146.165931416544;48081.851830425316
759;43617.00487757931;62441.89574904137;48151.379836479304
760;43617.00487757931;64491.21073620678;48852.79944097297
761;43617.00487757931;69270.07282366844;48373.06199912239
762;43617.00487757931;70566.00188133505;48106.63270144315
763;43617.00487757931;67043.86484413437;48074.11507873387
764;43617.00487757931;79285.05823793633;48909.91733087324
765;43617.00487757931;66762.70049720317;48214.52836291585
766;43617.00487757931;67350.98495122911;48688.15107168213
767;43617.00487757931;66554.49098641048;48009.7638604335
768;43617.00487757931;70349.7498395718;48751.18160275567
769;43617.00487757931;72557.29995401061;49414.64192555616
770;43617.00487757931;77926.04503122352;49998.85816022467
771;43617.00487757931;74948.67016035899;49557.831971218344
772;43617.00487757931;77098.65629185092;49471.05312697234
773;43617.00487757931;71631.33139107513;49313.19822140996
774;43617.00487757931;73032.62218562631;49547.96608056155
775;43617.00487757931;69123.50720969833;47578.45848880176
776;43617.00487757931;72900.9975570182;48645.2130123169
777;43617.00487757931;67403.33788883357;48148.62247677261
778;43617.00487757931;74597.81350987282;49261.12902857273
779;43617.00487757931;68033.61332714662;48919.70366528796
780;43617.00487757931;70875.20527236091;48317.13069565914
781;43617.00487757931;68016.0829009171;48642.43254493673
782;43617.00487757931;62550.278666463746;47166.58107631766
783;43617.00487757931;65993.28531569513;48133.71325073828
784;43617.00487757931;71107.10053977203;50122.38761324998
785;43617.00487757931;74261.69542286849;49024.0300074199
786;43582.7516463342;84131.62953479883;49533.94900697548
787;43582.7516463342;73675.5833138205;48929.558772578865
788;43582.7516463342;65152.175902615265;48382.50218943228
789;43582.7516463342;81720.1070871399;49242.12033969136
790;43582.7516463342;67130.96324319254;48472.802201773215
791;43582.7516463342;69742.9836731434;48431.18112273482
792;43582.7516463342;69679.85405524002;48921.5698601075
793;43582.7516463342;69011.34078618843;48853.51106183909
794;43582.7516463342;70252.26445322232;48244.84203782844
795;43582.7516463342;67632.83745993329;48544.58476512204
796;43582.7516463342;67444.37035974041;49054.41763430052
797;43582.7516463342;63636.25122583948;48046.84004596954
798;43582.7516463342;61107.3806709373;47783.15322319292
799;43582.7516463342;66834.61624589191;49803.6769052108
800;43582.7516463342;81434.10226460051;48503.086989168776
801;43582.7516463342;74673.5450723869;48213.80217922795
802;43582.7516463342;68015.05113639696;49528.34292837143
803;43582.7516463342;64590.0967135715;48835.81068850944
804;43582.7516463342;73323.34358282936;49069.03725440704
805;43582.7516463342;65641.36106795224;48291.039936373134
806;43582.7516463342;74871.59072448044;48012.86241674809
807;43582.7516463342;63584.140674354996;47935.48250726142
808;43582.7516463342;65296.95949422499;49213.40516801309
809;43582.7516463342;70408.05456456776;48673.43206952192
810;43582.7516463342;70671.23381486177;49147.7649998462
811;43582.7516463342;67881.12734831184;49011.826627736635
812;43582.7516463342;65751.00159518937;49030.30199690299
813;43582.7516463342;69539.37049480394;49409.77647771383
814;43582.7516463342;69869.44965236075;48238.56180125531
815;43582.7516463342;66083.98377745178;48790.61552181714
816;43582.7516463342;64790.75616345248;48348.723914303926
817;43582.7516463342;74973.66191096773;49101.13721520986
818;43582.7516463342;67112.44090457812;47982.36480466859
819;43582.7516463342;71638.66919889011;49812.234212474395
820;43582.7516463342;64847.79729376419;48744.473856455676
821;43582.7516463342;73701.46695785268;48584.8578234888
822;43582.7516463342;67117.57621657537;48446.227029218135
823;43582.7516463342;65841.22227951072;48105.1182246657
824;43582.7516463342;75674.70526595243;48988.3953017322
825;43582.7516463342;68669.26717209296;47617.85984558658
826;43582.7516463342;71464.69437565391;48013.59443976582
827;43582.7516463342;67856.55790017669;47627.60347584807
828;43582.7516463342;73278.3153055671;48119.68633705421
829;43582.7516463342;76786.18912026235;48455.494001944775
830;43582.7516463342;70386.9076599156;48801.07377650363
831;43582.7516463342;75416.75495109182;48891.45592601926
832;43582.7516463342;74509.91104198436;47873.397673044616
833;43582.7516463342;63520.747876277244;48539.956967038896
834;43582.7516463342;65437.441856794176;48151.904334562656
835;43582.7516463342;63329.85441990069;47900.68847478548
836;43582.7516463342;81019.95052383667;49333.06858896051
837;43582.7516463342;66705.24291152235;48717.07380218599
838;43582.7516463342;68605.35590557635;49828.84830538991
839;43582.7516463342;65456.92723298269;48064.75171403864
840;43582.7516463342;68125.38068384136;47900.27678313908
841;43582.7516463342;64834.561291260805;48566.15948868986
842;43582.7516463342;72135.17961291342;48806.98210812057
843;43582.7516463342;83024.60462414699;48045.793470400786
844;43582.7516463342;68980.03614895855;48153.25649149138
845;43582.7516463342;75733.80004573324;49173.746040906626
846;43582.7516463342;69760.50530058287;48680.84839753078
847;43582.7516463342;88817.36752604807;49630.33937220448
848;43582.7516463342;66602.39853079608;48701.35515184137
849;43582.7516463342;71990.75078309236;48633.47186340893
850;43582.7516463342;71238.27170520817;48394.32905354893
851;43582.7516463342;74240.52461928433;48572.53107869381
852;43582.7516463342;71284.78069981729;49005.04456007309
853;43582.7516463342;63542.4117121866;48826.23821306836
854;43582.7516463342;66576.7640215804;47923.33031306413
855;43582.7516463342;69612.80003253746;48740.88742095963
856;43582.7516463342;72897.84706870143;49711.79403837021
857;43582.7516463342;65350.047207597876;47992.05280135721
858;43582.7516463342;63289.34491661991;47427.3366655066
859;43582.7516463342;71015.93613006639;49430.16516037715
860;43582.7516463342;68843.0042382464;48645.2036007202
861;43582.7516463342;76347.20148912737;48721.90662799968
862;43582.7516463342;65951.79525051024;49249.49108114317
863;43434.829751479156;74026.8224574944;47125.28164653167
864;43434.829751479156;80177.47094856713;49217.32010782309
865;43422.38253596271;66934.5621591033;48597.7541174299
866;43422.38253596271;71601.83795648505;48648.578817898204
867;43422.38253596271;70016.33435518049;49295.960456476445
868;43422.38253596271;80421.34602590879;49447.14006633987
869;43422.38253596271;76741.08213662793;48660.32348749522
870;43209.90180669682;65209.43653509959;47733.21845683352
871;43209.90180669682;70478.64264750815;48450.17724649807
872;43209.90180669682;78053.95745526593;49109.70241884245
873;43209.90180669682;66891.36274615779;47058.465786514076
874;43209.90180669682;79111.47998185753;48542.038963386425
875;43209.90180669682;66556.33287439821;48190.87582545608
876;43209.90180669682;70633.92621172206;48261.97064398779
877;43209.90180669682;75034.23446054377;49250.14423850481
878;43209.90180669682;66541.22606158728;47486.880759582884
879;43209.90180669682;72341.14182736083;47565.50418917407
880;43209.90180669682;65089.94973021067;47495.79819706808
881;43209.90180669682;73257.7121804707;48251.993911944235
882;43209.90180669682;63995.014527125444;46962.67272482243
883;43209.90180669682;75510.76731038108;47787.37928225091
884;43209.90180669682;69539.79461845927;48378.0450668197
885;43209.90180669682;63675.58566405036;46874.02229781908
886;43209.90180669682;72391.61598604919;47714.648004988805
887;43209.90180669682;70215.80248891086;48023.85818055886
888;43209.90180669682;78271.32265990933;47850.49444091167
889;43209.90180669682;67253.89833532159;48220.10674038953
890;43209.90180669682;63599.30619082834;48039.4610914569
891;43209.90180669682;72185.83564072262;48327.71741972318
892;43209.90180669682;73964.83612157853;49385.49621045131
893;43209.90180669682;72720.56532241564;48318.370954132566
894;43209.90180669682;64156.89615459674;47694.454289934
895;43209.90180669682;69206.75842187888;48600.12509106326
896;43209.90180669682;70285.51628715546;47801.53392992808
897;43209.90180669682;69222.6778867873;46965.92216843021
898;43209.90180669682;74967.73064375125;48822.58138034523
899;43209.90180669682;68661.13090197115;48730.806097217435
900;43209.90180669682;69352.03379894354;49636.292838847854
901;43209.90180669682;65432.4246312776;48314.07763315308
902;43209.90180669682;69502.98374797897;47590.40615326439
903;43209.90180669682;73514.59938679163;50545.12976795884
904;43209.90180669682;74299.83411669456;49055.18230781467
905;43209.90180669682;72650.40758201183;48033.663311379874
906;43209.90180669682;66003.97852418706;47846.97526148473
907;43199.99952345244;62569.33600381022;47087.25294222008
908;43199.99952345244;71356.20961610193;48171.149576934775
909;43199.99952345244;64822.72239985706;47775.29957893351
910;43199.99952345244;73025.68600504495;47967.150364080175
911;43199.99952345244;65457.74286425378;48360.749902979696
912;43199.99952345244;70053.59539224977;48810.671784850034
913;43199.99952345244;72816.98267912163;48790.66390300728
914;43199.99952345244;64582.56345442521;48038.14553440359
915;43192.031632323815;64275.76523405397;47874.58625633
916;43192.031632323815;66937.93472569522;47794.9762615137
917;43192.031632323815;71335.36002594845;47971.1264265949
918;43192.031632323815;71973.45404128823;48461.73756491809
919;43192.031632323815;72714.90490591194;49213.73329032367
920;43192.031632323815;65512.43735834964;48914.99719689262
921;43192.031632323815;75865.19013657492;48324.264007140526
922;42984.09223357559;63887.290094575284;47753.198975733954
923;42984.09223357559;67060.37567412839;48335.0676143641
924;42984.09223357559;73402.08770534718;48224.34127615869
925;42984.09223357559;67220.0270562106;48826.30190776346
926;42984.09223357559;69900.2575380641;48269.59440733952
927;42984.09223357559;67306.55423114634;48145.442595521265
928;42984.09223357559;76570.65266013399;48526.14485573718
929;42984.09223357559;71123.86334616567;47873.40488820323
930;42984.09223357559;63727.89758044401;47923.421044564195
931;42984.09223357559;73053.10810198898;47220.97237428244
932;42984.09223357559;69199.59330357684;48474.90235018135
933;42984.09223357559;67675.78909273828;48182.408676270854
934;42984.09223357559;68140.26811965277;48016.33039332896
935;42984.09223357559;65762.40450533522;48600.908510020796
936;42984.09223357559;75525.07806116913;48742.42490108299
937;42984.09223357559;76074.83320705788;48787.719449975724
938;42984.09223357559;67319.87989861671;48140.15440556744
939;42984.09223357559;64892.85133709377;47733.88927152491
940;42984.09223357559;71584.45006097111;47759.122594317894
941;42984.09223357559;72699.22751695369;48607.052956056774
942;42984.09223357559;71420.04124144903;48031.19577151243
943;42984.09223357559;72609.05583561072;48249.53484944676
944;42984.09223357559;66346.0788089916;48582.397339810355
945;42984.09223357559;75578.56762592729;49080.219669362064
946;42984.09223357559;62709.34720745247;48184.19555946321
947;42984.09223357559;63677.904757799115;47308.92080709169
948;42984.09223357559;66427.32071800789;48363.94390093755
949;42984.09223357559;78918.96452330105;47509.09434128803
950;42980.479297200036;66451.78811077631;48708.54670988389
951;42980.479297200036;69586.83456737967;48911.26571687984
952;42980.479297200036;66076.91970830146;47912.349982162035
953;42980.479297200036;67448.21041199421;48056.77338774589
954;42980.479297200036;71235.50557422094;48408.776155747575
955;42980.479297200036;66402.45096257959;48421.82750425112
956;42980.479297200036;61610.33176239278;47153.769882606575
957;42980.479297200036;67986.6557020792;48469.335874097225
958;42980.479297200036;65087.98713819353;47665.217300805605
959;42980.479297200036;64340.750951910755;48580.93318948419
960;42980.479297200036;70752.07216678171;48222.97241423654
961;42980.479297200036;71047.368143262;48260.72464124863
962;42980.479297200036;64177.799050878784;47705.53620431262
963;42980.479297200036;75460.3708779559;47596.578048339936
964;42980.479297200036;65367.16942937465;47713.64096104666
965;42980.479297200036;66367.06346979554;48503.49555232596
966;42980.479297200036;70943.55429740436;48344.96606260043
967;42980.479297200036;66618.41942122392;48599.85142976159
968;42980.479297200036;79869.41285275503;49384.98677985641
969;42980.479297200036;69213.56376469598;48650.10309780802
970;42980.479297200036;76450.56433276781;48321.01519304794
971;42980.479297200036;69477.21307833688;47229.34076858515
972;42980.479297200036;70688.40969846399;48192.52486358992
973;42980.479297200036;83230.81138612928;48755.04363285358
974;42980.479297200036;71803.25121640138;48478.96023849806
975;42980.479297200036;74766.22174792076;48038.413510720755
976;42980.479297200036;71465.38663166061;48634.49059754275
977;42942.07636338538;72882.09960253295;47769.68698903762
978;42942.07636338538;62488.27548883329;47421.932275401785
979;42942.07636338538;83873.30072967638;48119.20392273104
980;42942.07636338538;68641.80662777308;47422.73792635606
981;42942.07636338538;68276.03438230547;48720.606261340436
982;42942.07636338538;66723.3309718681;47222.066588108835
983;42942.07636338538;68644.61988327932;49275.385847696605
984;42942.07636338538;65899.04117290239;48279.04643724389
985;42942.07636338538;66501.4638484931;48749.35250000101
986;42942.07636338538;66145.22527401132;48025.23220389027
987;42942.07636338538;62303.740121416944;47140.419621387286
988;42942.07636338538;63370.03534285593;47806.624132803634
989;42942.07636338538;75471.76614864048;48271.10538223681
990;42942.07636338538;62066.130744767404;47519.593078754086
991;42942.07636338538;75109.05074564091;47506.48573931632
992;42870.200589045075;66534.67913729223;47755.297041970145
993;42870.200589045075;70284.79389071288;47698.92196494407
994;42870.200589045075;66941.89902006951;47784.69096314357
995;42870.200589045075;65594.73780142266;47928.454199119304
996;42870.200589045075;65415.33196707396;48061.66719277234
997;42870.200589045075;66286.99967015823;47127.19341761342
998;42870.200589045075;73255.77039456551;48147.64940260057
999;42870.200589045075;67753.94221496585;48475.92923366734
1000;42870.200589045075;72571.63526302174;47821.28758667912
